{
  "project_info": {
    "project_number": "284190209745",
    "project_id": "satt-token",
    "storage_bucket": "satt-token.appspot.com"
  },
  "client": [
    {
      "client_info": {
        "mobilesdk_app_id": "1:284190209745:android:3e808fe86344cd61c837f0",
        "android_client_info": {
          "package_name": "us.atayen.ihave"
        }
      },
      "oauth_client": [
        {
          "client_id": "284190209745-jksnjh8en93s1ng6hvtpf4thljvqgi22.apps.googleusercontent.com",
          "client_type": 3
        }
      ],
      "api_key": [
        {
          "current_key": "AIzaSyCcVcsZH9HPICC_eI_NlKijLeWWJ2Je0tU"
        }
      ],
      "services": {
        "appinvite_service": {
          "other_platform_oauth_client": [
            {
              "client_id": "284190209745-jksnjh8en93s1ng6hvtpf4thljvqgi22.apps.googleusercontent.com",
              "client_type": 3
            },
            {
              "client_id": "284190209745-gicd3n09n8h2difnepl0di77qvghqv8r.apps.googleusercontent.com",
              "client_type": 2,
              "ios_info": {
                "bundle_id": "us.atayen.ihave"
              }
            }
          ]
        }
      }
    }
  ],
  "configuration_version": "1"
}