<svg width="11" height="6" viewBox="0 0 11 6" fill="none" xmlns="http://www.w3.org/2000/svg">
<path d="M1.88958 1L5.75586 4.75L9.62214 1" stroke="#1F2337" stroke-width="2" stroke-linecap="round" stroke-linejoin="round"/>
</svg>
