<svg width="32" height="32" viewBox="0 0 32 32" fill="none" xmlns="http://www.w3.org/2000/svg">
<ellipse cx="15.58" cy="15.5784" rx="15.58" ry="15.5784" fill="#4048FF"/>
<path d="M15.6526 26.9311C15.7026 26.9311 15.7359 26.9311 15.7859 26.9311C15.8025 26.9311 15.8359 26.9311 15.8525 26.9311C15.9025 26.9311 15.9525 26.9311 15.9858 26.9311C16.0025 26.9311 16.0192 26.9311 16.0358 26.9311C16.1025 26.9311 16.1691 26.9311 16.2358 26.9144C16.2358 26.9144 16.2358 26.9144 16.2524 26.9144C16.3191 26.9144 16.3691 26.9144 16.4357 26.8977C16.4524 26.8977 16.4691 26.8977 16.4857 26.8977C16.5357 26.8977 16.5857 26.8977 16.6357 26.8811C16.6524 26.8811 16.669 26.8811 16.6857 26.8811C16.7357 26.8811 16.7857 26.8644 16.8523 26.8644C16.869 26.8644 16.869 26.8644 16.8856 26.8644C16.9523 26.8644 17.019 26.8478 17.0856 26.8478C17.1523 26.8478 17.2022 26.8311 17.2689 26.8144C17.2856 26.8144 17.3022 26.8144 17.3022 26.8144C17.3522 26.8144 17.4022 26.7978 17.4522 26.7978C17.4689 26.7978 17.4689 26.7978 17.4855 26.7978C17.5522 26.7811 17.6022 26.7811 17.6688 26.7645C17.8021 26.7478 17.9354 26.7145 18.0521 26.6811C18.0687 26.6811 18.0687 26.6811 18.0854 26.6811C18.1354 26.6645 18.202 26.6645 18.252 26.6478H18.2687C18.402 26.6145 18.5186 26.5812 18.6519 26.5479C17.0523 26.5978 15.7526 26.3812 14.9361 26.198C13.1031 25.7981 11.3535 25.0817 9.87048 23.8487C7.40434 21.7827 6.13794 18.817 6.17127 15.8679C6.18793 13.6686 6.93777 11.4693 8.45412 9.66992C10.3537 7.42064 13.0531 6.23768 15.8192 6.17104C15.9525 6.17104 16.0692 6.17104 16.2025 6.17104V3.95508C16.0525 3.95508 15.9192 3.95508 15.7692 3.95508C14.9194 3.97174 14.0862 4.07171 13.2698 4.25498C12.4366 4.43826 11.6368 4.7215 10.8703 5.07139C10.0871 5.43794 9.35392 5.88779 8.67074 6.40429C7.97089 6.93746 7.32102 7.55393 6.75448 8.23704C6.22126 8.87017 5.75469 9.55329 5.37144 10.2864C4.98819 10.9862 4.68825 11.7359 4.45497 12.5023C4.23835 13.2521 4.07172 14.0352 4.00507 14.8183C3.9884 15.0682 3.97174 15.3014 3.95508 15.5514C3.95508 15.6513 3.95508 15.7346 3.95508 15.8346C3.95508 15.8846 3.95508 15.9346 3.95508 15.9846C3.97174 16.8343 4.07172 17.6674 4.25501 18.4838C4.43831 19.3168 4.72158 20.1166 5.07151 20.883C5.48808 21.7994 6.23792 23.1489 7.35435 24.1653C9.55388 25.8981 12.3366 26.9311 15.3526 26.9311C15.4193 26.9311 15.4859 26.9311 15.5526 26.9311C15.6026 26.9311 15.6359 26.9311 15.6526 26.9311Z" fill="white"/>
<path d="M19.2847 24.7979C18.5182 24.7812 17.5684 24.6646 16.8352 24.5313C13.4026 23.9148 10.4533 21.8155 9.37015 18.6499C8.05376 14.8011 10.07 10.6358 13.9025 9.3695C14.6524 9.11958 15.4022 9.00295 16.1687 9.00295C17.1518 9.00295 18.1349 9.20288 19.0347 9.56943L19.9679 7.58673C19.6846 7.4701 19.4013 7.37014 19.1181 7.27017C18.1683 6.97026 17.1685 6.82031 16.1687 6.82031C15.1689 6.82031 14.1691 6.98693 13.2193 7.30349C12.0029 7.70336 10.8865 8.35316 9.93669 9.20288C9.48679 9.60276 9.05355 10.0693 8.68696 10.5525C8.32037 11.0356 8.00378 11.5521 7.73717 12.102C7.47056 12.6518 7.25394 13.2183 7.10397 13.8014C6.954 14.3846 6.83736 15.001 6.80403 15.6175C6.72072 16.8838 6.88735 18.15 7.30393 19.3496C7.7205 20.5659 8.38703 21.6822 9.3035 22.6652C10.12 23.5483 11.0698 24.2148 12.2195 24.8312C13.4193 25.4643 14.9023 25.7976 16.452 26.0142C17.4518 26.1475 18.7848 26.1808 19.568 26.1808C20.2512 25.9309 20.5344 25.8142 20.901 25.6643C21.2176 25.5143 21.5342 25.3644 21.8508 25.1811C22.1674 24.9978 22.2174 24.9645 22.7506 24.6146C22.8006 24.5813 22.8506 24.548 22.8839 24.5147C21.051 24.8312 20.5844 24.8146 19.2847 24.7979Z" fill="white"/>
<path d="M23.3849 22.3157C22.8684 22.349 22.1352 22.399 21.3021 22.399C19.819 22.399 18.0028 22.2657 16.4531 21.7492C14.0536 20.9495 11.7874 18.9001 11.7874 16.3676C11.7874 13.8351 13.837 11.8024 16.3531 11.8024C18.0694 11.8024 19.5524 12.7521 20.3356 14.135L22.3185 13.152C22.0019 12.5688 21.6187 12.0356 21.1354 11.5691C20.5189 10.9527 19.7857 10.4528 18.9859 10.1196C18.1527 9.7697 17.2696 9.58643 16.3531 9.58643C15.4366 9.58643 14.5535 9.7697 13.7203 10.1196C12.9205 10.4528 12.1873 10.9527 11.5708 11.5691C10.9543 12.1856 10.4544 12.9187 10.1211 13.7184C9.77119 14.5515 9.58789 15.4346 9.58789 16.3509C9.58789 17.2673 9.78785 18.1837 10.1711 19.0501C10.521 19.8165 11.0043 20.5329 11.6208 21.1994C12.7039 22.3657 14.1869 23.2987 15.7699 23.8319C17.2862 24.3317 19.5191 24.515 21.6853 24.365C22.2852 24.315 22.7351 24.2651 23.5016 24.0984C24.2348 23.5153 24.9179 22.8489 25.5012 22.1158C24.9846 22.1657 24.0348 22.2657 23.3849 22.3157Z" fill="white"/>
</svg>
