<svg width="23" height="23" viewBox="0 0 23 23" fill="none" xmlns="http://www.w3.org/2000/svg">
<rect x="0.015625" y="23" width="22.2747" height="22.2747" rx="11.1373" transform="rotate(-90 0.015625 23)" fill="#1F2337"/>
<path d="M10.186 14.6565C10.186 14.1219 10.6194 13.6886 11.1539 13.6886C11.6884 13.6886 12.1218 14.1219 12.1218 14.6565V16.1643C12.1218 16.6989 11.6884 17.1322 11.1539 17.1322C10.6194 17.1322 10.186 16.6989 10.186 16.1643V14.6565Z" fill="white"/>
<ellipse cx="11.1539" cy="11.8626" rx="0.967857" ry="0.967856" fill="white"/>
<path d="M3.94824 8.24016C3.94824 7.3305 4.68567 6.59308 5.59533 6.59308H5.88396V10.8948H9.62148C9.44422 11.1748 9.34161 11.5067 9.34161 11.8626C9.34161 12.2186 9.44423 12.5505 9.6215 12.8305L5.88396 12.8305V17.1322H5.59533C4.68567 17.1322 3.94824 16.3948 3.94824 15.4851V8.24016Z" fill="white"/>
<path d="M16.4231 6.59308H16.7117C17.6214 6.59308 18.3588 7.3305 18.3588 8.24016V15.4851C18.3588 16.3948 17.6214 17.1322 16.7117 17.1322H16.4231V6.59308Z" fill="white"/>
<path d="M16.4231 12.8305L12.6855 12.8305C12.8628 12.5505 12.9654 12.2186 12.9654 11.8626C12.9654 11.5067 12.8628 11.1748 12.6855 10.8948H16.4231V12.8305Z" fill="white"/>
</svg>
