<svg id="Calque_1" data-name="Calque 1" xmlns="http://www.w3.org/2000/svg" viewBox="0 0 129.99 127.51">
  <g>
    <ellipse cx="65.3" cy="66.42" rx="60.45" ry="61.08" fill="#ffd371"/>
    <ellipse cx="65.3" cy="66.42" rx="60.45" ry="61.08" fill="#ffd371"/>
    <path d="M129.75,73.51c0,33.73-27.07,61.09-60.45,61.09a60.2,60.2,0,0,1-49.41-25.89,59.68,59.68,0,0,0,34.83,11.16c33.38,0,60.45-27.35,60.45-61.09a61.16,61.16,0,0,0-11-35.19A61.16,61.16,0,0,1,129.75,73.51Z" transform="translate(-4 -7.09)" fill="#ffc552"/>
    <path d="M58.18,9.86a4.68,4.68,0,0,1,.18-.48,3.38,3.38,0,0,1,3-1.62c4.6-.34,9.12-.71,13.72-.67a4.08,4.08,0,0,1,3.19,1.2,3.44,3.44,0,0,1,.57,2.76,9.52,9.52,0,0,1-1.67,3.81,3,3,0,0,1-1.1,1,3.39,3.39,0,0,1-1.23.22c-2.83.15-5.67.17-8.5.07S57,13.94,58.18,9.86Z" transform="translate(-4 -7.09)" fill="#ffd371"/>
    <path d="M8.35,58.1a2.49,2.49,0,0,0-1.15.18,2.48,2.48,0,0,0-1,1.26c-1.86,4.26-3,9.09-1.71,13.56a6.42,6.42,0,0,0,1.73,3.09,3.09,3.09,0,0,0,3.31.62c1.53-.76,1.82-2.79,2-4.5a72.55,72.55,0,0,1,1.69-10.25C14.28,57.79,11.61,58.11,8.35,58.1Z" transform="translate(-4 -7.09)" fill="#ffd371"/>
    <path d="M129.67,53.82a1.6,1.6,0,0,1,.91-.26,1.46,1.46,0,0,1,.92.72c1.55,2.24,1.8,5.11,2,7.83l.42,5.67a8.3,8.3,0,0,1-.22,3.37,2.75,2.75,0,0,1-2.47,2c-1.54-.05-2.44-1.73-3-3.19a52.68,52.68,0,0,1-2.36-10.15C125.45,56.49,126.76,55.34,129.67,53.82Z" transform="translate(-4 -7.09)" fill="#ffd371"/>
    <path d="M76.19,20.19C45.35,15.58,24.3,47.93,23.55,75.35c-.25,9.06,1.47,18.93,8.06,25.07,6.22,5.8,15.62,7,23.87,5.12,16.71-3.78,31.86-15.32,39.07-31.32,6.23-13.83,7.36-34.3-3.44-46.28A24.78,24.78,0,0,0,76.19,20.19Z" transform="translate(-4 -7.09)" fill="#ffeda1" opacity="0.5" style="isolation: isolate"/>
    <path d="M70.25,37.37C51.78,34.61,39.17,54,38.72,70.41c-.15,5.43.88,11.34,4.83,15,3.73,3.47,9.35,4.19,14.3,3.07a34.08,34.08,0,0,0,23.4-18.76C85,61.46,85.66,49.19,79.19,42A14.88,14.88,0,0,0,70.25,37.37Z" transform="translate(-4 -7.09)" fill="#ffeda1"/>
    <path d="M106.46,82.62a7.44,7.44,0,0,0-4.39,1.78,8.24,8.24,0,0,0-1.79,2.95,12.77,12.77,0,0,0-1,5.2,8.94,8.94,0,0,0,6.69,8.08,8.84,8.84,0,0,0,9.5-4.33C119.16,89.39,114.22,81.75,106.46,82.62Z" transform="translate(-4 -7.09)" fill="#ffb32c"/>
    <path d="M116.6,92.89a8.9,8.9,0,0,0-10.14-7.44,7.35,7.35,0,0,0-4.39,1.78,8.28,8.28,0,0,0-1.79,2.94,15.4,15.4,0,0,0-.93,3.33c0-.31-.09-.63-.11-1a12.77,12.77,0,0,1,1-5.2,8.18,8.18,0,0,1,1.79-2.95,7.47,7.47,0,0,1,4.39-1.78A8.92,8.92,0,0,1,116.6,92.89Z" transform="translate(-4 -7.09)" fill="#ffa20d"/>
    <path d="M43.09,93.07a6.3,6.3,0,0,0-3.75,1.52,7.14,7.14,0,0,0-1.53,2.52,10.8,10.8,0,0,0-.88,4.44,7.65,7.65,0,0,0,5.72,6.91,7.55,7.55,0,0,0,8.12-3.7C54,98.86,49.73,92.32,43.09,93.07Z" transform="translate(-4 -7.09)" fill="#ffb32c"/>
    <path d="M51.72,102.12A7.61,7.61,0,0,0,43.1,96a6.31,6.31,0,0,0-3.75,1.52,6.78,6.78,0,0,0-1.53,2.52,13.2,13.2,0,0,0-.74,2.54,7.09,7.09,0,0,1-.14-1,11,11,0,0,1,.88-4.44,6.83,6.83,0,0,1,1.53-2.52,6.3,6.3,0,0,1,3.75-1.52A7.62,7.62,0,0,1,51.72,102.12Z" transform="translate(-4 -7.09)" fill="#ffa20d"/>
    <path d="M19.08,64.41a4,4,0,0,0-2.34,1,4.35,4.35,0,0,0-.95,1.57,6.78,6.78,0,0,0-.55,2.77A4.77,4.77,0,0,0,18.81,74a4.72,4.72,0,0,0,5.07-2.31A4.82,4.82,0,0,0,19.08,64.41Z" transform="translate(-4 -7.09)" fill="#ffb32c"/>
    <path d="M81.55,29.36a3.15,3.15,0,0,0-1.84.75A3.41,3.41,0,0,0,79,31.35a5.27,5.27,0,0,0-.43,2.18,3.61,3.61,0,0,0,6.8,1.57A3.8,3.8,0,0,0,81.55,29.36Z" transform="translate(-4 -7.09)" fill="#ffb32c"/>
    <path d="M24.46,70.05a4.75,4.75,0,0,0-5.38-3.81,4,4,0,0,0-2.34,1,4.19,4.19,0,0,0-.95,1.57,8.59,8.59,0,0,0-.47,1.57,3.19,3.19,0,0,1-.08-.62,6.67,6.67,0,0,1,.55-2.78,4.32,4.32,0,0,1,.95-1.57,4,4,0,0,1,2.34-1A4.76,4.76,0,0,1,24.46,70.05Z" transform="translate(-4 -7.09)" fill="#ffa20d"/>
    <path d="M85.3,115.24a2.68,2.68,0,0,0-1.58.64,2.87,2.87,0,0,0-.64,1.06,4.62,4.62,0,0,0-.37,1.87,3.09,3.09,0,0,0,5.81,1.35A3.24,3.24,0,0,0,85.3,115.24Z" transform="translate(-4 -7.09)" fill="#ffb32c"/>
    <path d="M88.93,119.05a3.2,3.2,0,0,0-3.62-2.57,2.74,2.74,0,0,0-1.58.64,2.79,2.79,0,0,0-.64,1.06,6.48,6.48,0,0,0-.32,1.06,3,3,0,0,1-.06-.42,4.46,4.46,0,0,1,.37-1.87,2.87,2.87,0,0,1,.64-1.06,2.72,2.72,0,0,1,1.58-.64A3.2,3.2,0,0,1,88.93,119.05Z" transform="translate(-4 -7.09)" fill="#ffa20d"/>
    <path d="M85.74,34a3.74,3.74,0,0,0-4.19-2.8,3.07,3.07,0,0,0-1.84.74A3.5,3.5,0,0,0,79,33.18a7.84,7.84,0,0,0-.33,1,4.08,4.08,0,0,1-.11-.7A5.35,5.35,0,0,1,79,31.34a3.5,3.5,0,0,1,.75-1.24,3.07,3.07,0,0,1,1.84-.74A3.75,3.75,0,0,1,85.74,34Z" transform="translate(-4 -7.09)" fill="#ffa20d"/>
    <path d="M109.57,36.71a4,4,0,0,0-2.34.95,4.35,4.35,0,0,0-1,1.57,6.78,6.78,0,0,0-.55,2.77,4.77,4.77,0,0,0,3.57,4.31A4.72,4.72,0,0,0,114.37,44,4.83,4.83,0,0,0,109.57,36.71Z" transform="translate(-4 -7.09)" fill="#ffb32c"/>
    <path d="M114.93,42.38a4.74,4.74,0,0,0-5.37-3.77,4,4,0,0,0-2.34.94,4.31,4.31,0,0,0-1,1.58,8.24,8.24,0,0,0-.45,1.54,3.73,3.73,0,0,1-.09-.67,6.85,6.85,0,0,1,.54-2.78,4.41,4.41,0,0,1,1-1.57,4,4,0,0,1,2.34-.95A4.76,4.76,0,0,1,114.93,42.38Z" transform="translate(-4 -7.09)" fill="#ffa20d"/>
    <path d="M33.21,32.59a11.5,11.5,0,0,0-2.93,5,7.77,7.77,0,0,0,.22,3.58,9.34,9.34,0,0,0,2.34,4.48c2.55,2.45,7.39,2.37,11.28-.18s6.48-7.36,6-11.18C49.22,26.32,39.82,25.3,33.21,32.59Z" transform="translate(-4 -7.09)" fill="#ffb32c"/>
    <path d="M50,33.32C46.81,29.44,39.89,30,34.7,35.76a11.45,11.45,0,0,0-2.93,5A7.76,7.76,0,0,0,32,44.35l.12.44a10.35,10.35,0,0,1-1.6-3.61,7.79,7.79,0,0,1-.22-3.58,11.5,11.5,0,0,1,2.93-5C39.54,25.6,48.43,26.26,50,33.32Z" transform="translate(-4 -7.09)" fill="#ffa20d"/>
    <g>
      <g>
        <path d="M90.83,56.21a85.87,85.87,0,0,0,8.32,6.91,2.5,2.5,0,0,0,1.93.25,2.53,2.53,0,0,0,1.49-1.15,2.5,2.5,0,0,0,.25-1.93,2.84,2.84,0,0,0-1.15-1.49c-.55-.4-1.09-.81-1.63-1.22l.51.39q-3.22-2.49-6.19-5.3a2.5,2.5,0,1,0-3.53,3.54Z" transform="translate(-4 -7.09)" fill="#e29417"/>
        <path d="M98,52a87.46,87.46,0,0,0-6.85,8.4,2.5,2.5,0,0,0-.25,1.93A2.53,2.53,0,0,0,92,63.81a2.5,2.5,0,0,0,1.93.25,2.83,2.83,0,0,0,1.49-1.15c.55-.76,1.11-1.51,1.68-2.26l-.39.51q2.26-2.92,4.78-5.64A2.5,2.5,0,1,0,98,52Z" transform="translate(-4 -7.09)" fill="#e29417"/>
      </g>
      <g>
        <path d="M36.42,59a85.87,85.87,0,0,0,8.32,6.91,2.5,2.5,0,0,0,1.93.25A2.53,2.53,0,0,0,48.16,65a2.5,2.5,0,0,0,.25-1.93,2.84,2.84,0,0,0-1.15-1.49c-.55-.4-1.09-.81-1.63-1.22l.51.39q-3.22-2.49-6.19-5.3A2.5,2.5,0,1,0,36.42,59Z" transform="translate(-4 -7.09)" fill="#e29417"/>
        <path d="M43.55,54.76a87.46,87.46,0,0,0-6.85,8.4,2.5,2.5,0,0,0-.25,1.93,2.53,2.53,0,0,0,1.15,1.49,2.5,2.5,0,0,0,1.93.25A2.83,2.83,0,0,0,41,65.68c.55-.76,1.11-1.51,1.68-2.26l-.39.51q2.27-2.93,4.78-5.64a2.5,2.5,0,1,0-3.54-3.53Z" transform="translate(-4 -7.09)" fill="#e29417"/>
      </g>
    </g>
    <rect x="58" y="70.2" width="14" height="0.41" fill="none" stroke="#e29417" stroke-linecap="round" stroke-miterlimit="10" stroke-width="2"/>
  </g>
</svg>
