<svg width="19" height="21" viewBox="0 0 19 21" fill="none" xmlns="http://www.w3.org/2000/svg">
<path d="M9.00977 0V10.5H10.5098V0H9.00977Z" fill="#F52079"/>
<path d="M2.25977 11.7187C2.25977 8.89589 3.81889 6.43623 6.12654 5.15572L5.39873 3.84412C2.63382 5.37836 0.759766 8.32914 0.759766 11.7187C0.759766 16.6892 4.7892 20.7187 9.75977 20.7187C14.7303 20.7187 18.7598 16.6892 18.7598 11.7187C18.7598 8.38645 16.9485 5.47818 14.2603 3.92316L13.5092 5.22157C15.7529 6.51949 17.2598 8.94355 17.2598 11.7187C17.2598 15.8608 13.9019 19.2187 9.75977 19.2187C5.61763 19.2187 2.25977 15.8608 2.25977 11.7187Z" fill="#F52079"/>
</svg>
