<svg width="1450" height="688" viewBox="0 0 1450 688" fill="none" xmlns="http://www.w3.org/2000/svg">
    <defs>
        <filter id="filter0_dii_1260_1580" x="0.533333" y="0.266666" width="686.933" height="686.933" filterUnits="userSpaceOnUse" color-interpolation-filters="sRGB">
            <feFlood flood-opacity="0" result="BackgroundImageFix"/>
            <feColorMatrix in="SourceAlpha" type="matrix" values="0 0 0 0 0 0 0 0 0 0 0 0 0 0 0 0 0 0 127 0" result="hardAlpha"/>
            <feOffset dy="59.7333"/>
            <feGaussianBlur stdDeviation="59.7333"/>
            <feColorMatrix type="matrix" values="0 0 0 0 0.2 0 0 0 0 0.2 0 0 0 0 0.2 0 0 0 0.1315 0"/>
            <feBlend mode="normal" in2="BackgroundImageFix" result="effect1_dropShadow_1260_1580"/>
            <feBlend mode="normal" in="SourceGraphic" in2="effect1_dropShadow_1260_1580" result="shape"/>
            <feColorMatrix in="SourceAlpha" type="matrix" values="0 0 0 0 0 0 0 0 0 0 0 0 0 0 0 0 0 0 127 0" result="hardAlpha"/>
            <feOffset dy="14.4687"/>
            <feGaussianBlur stdDeviation="7.23437"/>
            <feComposite in2="hardAlpha" operator="arithmetic" k2="-1" k3="1"/>
            <feColorMatrix type="matrix" values="0 0 0 0 1 0 0 0 0 1 0 0 0 0 1 0 0 0 1 0"/>
            <feBlend mode="normal" in2="shape" result="effect2_innerShadow_1260_1580"/>
            <feColorMatrix in="SourceAlpha" type="matrix" values="0 0 0 0 0 0 0 0 0 0 0 0 0 0 0 0 0 0 127 0" result="hardAlpha"/>
            <feOffset dy="-14.4687"/>
            <feGaussianBlur stdDeviation="7.23437"/>
            <feComposite in2="hardAlpha" operator="arithmetic" k2="-1" k3="1"/>
            <feColorMatrix type="matrix" values="0 0 0 0 0.8775 0 0 0 0 0.8775 0 0 0 0 0.8775 0 0 0 1 0"/>
            <feBlend mode="normal" in2="effect2_innerShadow_1260_1580" result="effect3_innerShadow_1260_1580"/>
        </filter>
        <linearGradient id="paint0_linear_1260_1580" x1="344" y1="60" x2="344" y2="508" gradientUnits="userSpaceOnUse">
            <stop stop-color="#E6E6E6"/>
            <stop offset="1" stop-color="white"/>
        </linearGradient>
        <linearGradient id="paint1_linear_1260_1580" x1="298.979" y1="409.268" x2="269.247" y2="350.939" gradientUnits="userSpaceOnUse">
            <stop stop-color="#F7B594"/>
            <stop offset="0.2115" stop-color="#F7B291"/>
            <stop offset="0.4026" stop-color="#F5A98A"/>
            <stop offset="0.5858" stop-color="#F39A7F"/>
            <stop offset="0.7642" stop-color="#F08370"/>
            <stop offset="0.9375" stop-color="#EC635D"/>
            <stop offset="1" stop-color="#EA5555"/>
        </linearGradient>
        <linearGradient id="paint2_linear_1260_1580" x1="296.016" y1="410.778" x2="266.284" y2="352.448" gradientUnits="userSpaceOnUse">
            <stop stop-color="#F7B594"/>
            <stop offset="0.2115" stop-color="#F7B291"/>
            <stop offset="0.4026" stop-color="#F5A98A"/>
            <stop offset="0.5858" stop-color="#F39A7F"/>
            <stop offset="0.7642" stop-color="#F08370"/>
            <stop offset="0.9375" stop-color="#EC635D"/>
            <stop offset="1" stop-color="#EA5555"/>
        </linearGradient>
        <linearGradient id="paint3_linear_1260_1580" x1="293.801" y1="411.906" x2="264.069" y2="353.576" gradientUnits="userSpaceOnUse">
            <stop stop-color="#F7B594"/>
            <stop offset="0.2115" stop-color="#F7B291"/>
            <stop offset="0.4026" stop-color="#F5A98A"/>
            <stop offset="0.5858" stop-color="#F39A7F"/>
            <stop offset="0.7642" stop-color="#F08370"/>
            <stop offset="0.9375" stop-color="#EC635D"/>
            <stop offset="1" stop-color="#EA5555"/>
        </linearGradient>
        <linearGradient id="paint4_linear_1260_1580" x1="305.917" y1="405.722" x2="276.192" y2="347.398" gradientUnits="userSpaceOnUse">
            <stop stop-color="#F7B594"/>
            <stop offset="0.2115" stop-color="#F7B291"/>
            <stop offset="0.4026" stop-color="#F5A98A"/>
            <stop offset="0.5858" stop-color="#F39A7F"/>
            <stop offset="0.7642" stop-color="#F08370"/>
            <stop offset="0.9375" stop-color="#EC635D"/>
            <stop offset="1" stop-color="#EA5555"/>
        </linearGradient>
        <linearGradient id="paint5_linear_1260_1580" x1="302.581" y1="407.431" x2="272.849" y2="349.101" gradientUnits="userSpaceOnUse">
            <stop stop-color="#F7B594"/>
            <stop offset="0.2115" stop-color="#F7B291"/>
            <stop offset="0.4026" stop-color="#F5A98A"/>
            <stop offset="0.5858" stop-color="#F39A7F"/>
            <stop offset="0.7642" stop-color="#F08370"/>
            <stop offset="0.9375" stop-color="#EC635D"/>
            <stop offset="1" stop-color="#EA5555"/>
        </linearGradient>
        <linearGradient id="paint6_linear_1260_1580" x1="274.124" y1="372.195" x2="276.363" y2="224.511" gradientUnits="userSpaceOnUse">
            <stop stop-color="#BA9FCC"/>
            <stop offset="0.0323" stop-color="#AE96C7"/>
            <stop offset="0.113" stop-color="#9785BE"/>
            <stop offset="0.2043" stop-color="#8377B6"/>
            <stop offset="0.3089" stop-color="#736EB0"/>
            <stop offset="0.4349" stop-color="#6867AD"/>
            <stop offset="0.6041" stop-color="#6263AA"/>
            <stop offset="1" stop-color="#6062AA"/>
        </linearGradient>
        <linearGradient id="paint7_linear_1260_1580" x1="276.552" y1="372.231" x2="278.792" y2="224.552" gradientUnits="userSpaceOnUse">
            <stop stop-color="#BA9FCC"/>
            <stop offset="0.0323" stop-color="#AE96C7"/>
            <stop offset="0.113" stop-color="#9785BE"/>
            <stop offset="0.2043" stop-color="#8377B6"/>
            <stop offset="0.3089" stop-color="#736EB0"/>
            <stop offset="0.4349" stop-color="#6867AD"/>
            <stop offset="0.6041" stop-color="#6263AA"/>
            <stop offset="1" stop-color="#6062AA"/>
        </linearGradient>
        <linearGradient id="paint8_linear_1260_1580" x1="270.525" y1="372.141" x2="272.763" y2="224.467" gradientUnits="userSpaceOnUse">
            <stop stop-color="#BA9FCC"/>
            <stop offset="0.0323" stop-color="#AE96C7"/>
            <stop offset="0.113" stop-color="#9785BE"/>
            <stop offset="0.2043" stop-color="#8377B6"/>
            <stop offset="0.3089" stop-color="#736EB0"/>
            <stop offset="0.4349" stop-color="#6867AD"/>
            <stop offset="0.6041" stop-color="#6263AA"/>
            <stop offset="1" stop-color="#6062AA"/>
        </linearGradient>
        <linearGradient id="paint9_linear_1260_1580" x1="271.89" y1="372.16" x2="274.129" y2="224.483" gradientUnits="userSpaceOnUse">
            <stop stop-color="#BA9FCC"/>
            <stop offset="0.0323" stop-color="#AE96C7"/>
            <stop offset="0.113" stop-color="#9785BE"/>
            <stop offset="0.2043" stop-color="#8377B6"/>
            <stop offset="0.3089" stop-color="#736EB0"/>
            <stop offset="0.4349" stop-color="#6867AD"/>
            <stop offset="0.6041" stop-color="#6263AA"/>
            <stop offset="1" stop-color="#6062AA"/>
        </linearGradient>
        <linearGradient id="paint10_linear_1260_1580" x1="304.554" y1="372.657" x2="306.793" y2="224.976" gradientUnits="userSpaceOnUse">
            <stop stop-color="#BA9FCC"/>
            <stop offset="0.0323" stop-color="#AE96C7"/>
            <stop offset="0.113" stop-color="#9785BE"/>
            <stop offset="0.2043" stop-color="#8377B6"/>
            <stop offset="0.3089" stop-color="#736EB0"/>
            <stop offset="0.4349" stop-color="#6867AD"/>
            <stop offset="0.6041" stop-color="#6263AA"/>
            <stop offset="1" stop-color="#6062AA"/>
        </linearGradient>
        <linearGradient id="paint11_linear_1260_1580" x1="269" y1="267.842" x2="326.501" y2="275.438" gradientUnits="userSpaceOnUse">
            <stop stop-color="#F52079"/>
            <stop offset="1" stop-color="#4048FF"/>
        </linearGradient>
        <linearGradient id="paint12_linear_1260_1580" x1="294.111" y1="290.607" x2="326.699" y2="234.186" gradientUnits="userSpaceOnUse">
            <stop stop-color="#BA9FCC"/>
            <stop offset="1" stop-color="#6062AA"/>
        </linearGradient>
        <linearGradient id="paint13_linear_1260_1580" x1="269.124" y1="128.882" x2="331.973" y2="128.882" gradientUnits="userSpaceOnUse">
            <stop stop-color="#BA9FCC"/>
            <stop offset="1" stop-color="#6062AA"/>
        </linearGradient>
        <linearGradient id="paint14_linear_1260_1580" x1="364.275" y1="114.319" x2="331.876" y2="168.216" gradientUnits="userSpaceOnUse">
            <stop offset="0.1606" stop-color="#F7B594"/>
            <stop offset="0.4302" stop-color="#F7B392"/>
            <stop offset="0.5799" stop-color="#F6AD8D"/>
            <stop offset="0.7004" stop-color="#F4A184"/>
            <stop offset="0.8051" stop-color="#F29078"/>
            <stop offset="0.8997" stop-color="#EF796A"/>
            <stop offset="0.9858" stop-color="#EB5B58"/>
            <stop offset="1" stop-color="#EA5555"/>
        </linearGradient>
        <linearGradient id="paint15_linear_1260_1580" x1="363.896" y1="114.09" x2="331.496" y2="167.987" gradientUnits="userSpaceOnUse">
            <stop offset="0.1606" stop-color="#F7B594"/>
            <stop offset="0.4302" stop-color="#F7B392"/>
            <stop offset="0.5799" stop-color="#F6AD8D"/>
            <stop offset="0.7004" stop-color="#F4A184"/>
            <stop offset="0.8051" stop-color="#F29078"/>
            <stop offset="0.8997" stop-color="#EF796A"/>
            <stop offset="0.9858" stop-color="#EB5B58"/>
            <stop offset="1" stop-color="#EA5555"/>
        </linearGradient>
        <linearGradient id="paint16_linear_1260_1580" x1="269.124" y1="125.458" x2="331.972" y2="125.458" gradientUnits="userSpaceOnUse">
            <stop stop-color="#BA9FCC"/>
            <stop offset="1" stop-color="#6062AA"/>
        </linearGradient>
        <linearGradient id="paint17_linear_1260_1580" x1="269.122" y1="153.125" x2="331.97" y2="153.125" gradientUnits="userSpaceOnUse">
            <stop stop-color="#BA9FCC"/>
            <stop offset="1" stop-color="#6062AA"/>
        </linearGradient>
        <linearGradient id="paint18_linear_1260_1580" x1="336.781" y1="97.7911" x2="304.382" y2="151.691" gradientUnits="userSpaceOnUse">
            <stop offset="0.1606" stop-color="#F7B594"/>
            <stop offset="0.4302" stop-color="#F7B392"/>
            <stop offset="0.5799" stop-color="#F6AD8D"/>
            <stop offset="0.7004" stop-color="#F4A184"/>
            <stop offset="0.8051" stop-color="#F29078"/>
            <stop offset="0.8997" stop-color="#EF796A"/>
            <stop offset="0.9858" stop-color="#EB5B58"/>
            <stop offset="1" stop-color="#EA5555"/>
        </linearGradient>
        <linearGradient id="paint19_linear_1260_1580" x1="269.165" y1="143.498" x2="331.97" y2="143.498" gradientUnits="userSpaceOnUse">
            <stop stop-color="#BA9FCC"/>
            <stop offset="1" stop-color="#6062AA"/>
        </linearGradient>
        <linearGradient id="paint20_linear_1260_1580" x1="269.164" y1="98.1542" x2="325.625" y2="108.353" gradientUnits="userSpaceOnUse">
            <stop stop-color="#F52079"/>
            <stop offset="1" stop-color="#4048FF"/>
        </linearGradient>
        <linearGradient id="paint21_linear_1260_1580" x1="413.613" y1="443.964" x2="413.613" y2="123.548" gradientUnits="userSpaceOnUse">
            <stop stop-color="#BA9FCC"/>
            <stop offset="0.0174" stop-color="#B79CCA"/>
            <stop offset="0.2135" stop-color="#9986BE"/>
            <stop offset="0.4109" stop-color="#8176B5"/>
            <stop offset="0.6079" stop-color="#6E6BAF"/>
            <stop offset="0.8044" stop-color="#6364AB"/>
            <stop offset="1" stop-color="#6062AA"/>
        </linearGradient>
        <linearGradient id="paint22_linear_1260_1580" x1="413.654" y1="405.158" x2="419.24" y2="450.519" gradientUnits="userSpaceOnUse">
            <stop offset="0.276058" stop-color="#F52079"/>
            <stop offset="0.854167" stop-color="#4048FF"/>
        </linearGradient>
    </defs>
    <g filter="url(#filter0_dii_1260_1580)">
<rect x="120" y="60" width="448" height="448" rx="224" fill="url(#paint0_linear_1260_1580)"/>
</g>
<path d="M687.003 367.465C687.003 373.016 685.188 377.713 681.558 381.556C677.929 385.185 673.339 387 667.788 387C662.237 387 657.647 385.185 654.018 381.556C650.389 377.713 648.574 373.016 648.574 367.465V235.207C648.574 229.656 650.389 225.066 654.018 221.437C657.647 217.594 662.237 215.672 667.788 215.672C673.339 215.672 677.929 217.594 681.558 221.437C685.188 225.066 687.003 229.656 687.003 235.207V367.465ZM667.468 194.857C660.209 194.857 655.085 193.683 652.096 191.334C649.108 188.986 647.613 184.823 647.613 178.845V172.76C647.613 166.569 649.214 162.406 652.417 160.271C655.833 157.923 660.956 156.748 667.788 156.748C675.26 156.748 680.491 157.923 683.48 160.271C686.469 162.619 687.963 166.782 687.963 172.76V178.845C687.963 185.036 686.362 189.306 683.16 191.654C679.957 193.789 674.727 194.857 667.468 194.857ZM859.797 212.47C875.168 212.47 886.804 215.779 894.703 222.397C902.816 229.016 908.366 237.875 911.355 248.977C914.344 259.865 915.839 272.034 915.839 285.484V367.465C915.839 373.016 914.024 377.713 910.395 381.556C906.765 385.185 902.175 387 896.624 387C891.074 387 886.484 385.185 882.854 381.556C879.225 377.713 877.41 373.016 877.41 367.465V285.484C877.41 278.439 876.556 272.141 874.848 266.59C873.14 260.826 870.045 256.236 865.561 252.82C861.078 249.404 854.673 247.696 846.347 247.696C838.234 247.696 831.296 249.404 825.531 252.82C819.767 256.236 815.39 260.826 812.402 266.59C809.626 272.141 808.238 278.439 808.238 285.484V367.465C808.238 373.016 806.424 377.713 802.794 381.556C799.165 385.185 794.575 387 789.024 387C783.473 387 778.883 385.185 775.254 381.556C771.625 377.713 769.81 373.016 769.81 367.465V169.558C769.81 164.007 771.625 159.417 775.254 155.788C778.883 151.945 783.473 150.023 789.024 150.023C794.575 150.023 799.165 151.945 802.794 155.788C806.424 159.417 808.238 164.007 808.238 169.558V248.977L803.435 248.016C805.356 244.387 808.025 240.544 811.441 236.488C814.857 232.218 819.02 228.268 823.93 224.639C828.841 221.01 834.285 218.127 840.262 215.992C846.24 213.644 852.752 212.47 859.797 212.47ZM1072.89 212.47C1078.44 212.47 1083.03 214.285 1086.66 217.914C1090.29 221.543 1092.11 226.24 1092.11 232.004V367.465C1092.11 373.016 1090.29 377.713 1086.66 381.556C1083.03 385.185 1078.44 387 1072.89 387C1067.34 387 1062.75 385.185 1059.12 381.556C1055.49 377.713 1053.68 373.016 1053.68 367.465V351.774L1060.72 354.656C1060.72 357.431 1059.23 360.847 1056.24 364.904C1053.25 368.746 1049.19 372.589 1044.07 376.432C1038.95 380.275 1032.86 383.584 1025.82 386.36C1018.99 388.921 1011.51 390.202 1003.4 390.202C988.67 390.202 975.326 386.466 963.371 378.994C951.415 371.308 941.915 360.847 934.869 347.611C928.038 334.161 924.622 318.789 924.622 301.496C924.622 283.99 928.038 268.618 934.869 255.382C941.915 241.932 951.308 231.471 963.05 223.998C974.793 216.313 987.816 212.47 1002.12 212.47C1011.3 212.47 1019.73 213.858 1027.42 216.633C1035.1 219.408 1041.72 222.931 1047.27 227.201C1053.04 231.471 1057.41 235.847 1060.4 240.331C1063.61 244.6 1065.21 248.23 1065.21 251.219L1053.68 255.382V232.004C1053.68 226.454 1055.49 221.864 1059.12 218.234C1062.75 214.391 1067.34 212.47 1072.89 212.47ZM1008.2 354.976C1017.6 354.976 1025.82 352.628 1032.86 347.931C1039.91 343.234 1045.35 336.829 1049.19 328.717C1053.25 320.604 1055.28 311.53 1055.28 301.496C1055.28 291.249 1053.25 282.068 1049.19 273.956C1045.35 265.843 1039.91 259.438 1032.86 254.741C1025.82 250.045 1017.6 247.696 1008.2 247.696C999.024 247.696 990.911 250.045 983.866 254.741C976.821 259.438 971.27 265.843 967.214 273.956C963.371 282.068 961.449 291.249 961.449 301.496C961.449 311.53 963.371 320.604 967.214 328.717C971.27 336.829 976.821 343.234 983.866 347.931C990.911 352.628 999.024 354.976 1008.2 354.976ZM1114.46 215.672C1118.52 215.672 1122.26 216.74 1125.67 218.875C1129.09 220.796 1131.65 223.785 1133.36 227.841L1180.43 335.442L1173.39 338.644L1221.42 228.162C1225.05 219.622 1230.71 215.565 1238.4 215.992C1243.73 215.992 1248 217.7 1251.21 221.116C1254.62 224.319 1256.33 228.375 1256.33 233.285C1256.33 234.78 1256.01 236.381 1255.37 238.089C1254.94 239.797 1254.41 241.398 1253.77 242.893L1193.88 374.831C1190.47 382.517 1185.02 386.573 1177.55 387C1173.5 387.64 1169.55 386.893 1165.7 384.758C1162.07 382.623 1159.3 379.314 1157.38 374.831L1097.81 242.893C1097.39 241.825 1096.85 240.437 1096.21 238.729C1095.78 237.021 1095.57 234.993 1095.57 232.645C1095.57 228.802 1097.28 225.066 1100.69 221.437C1104.11 217.594 1108.7 215.672 1114.46 215.672ZM1340.92 390.202C1322.77 390.202 1306.97 386.466 1293.52 378.994C1280.28 371.308 1270.04 360.954 1262.78 347.931C1255.73 334.908 1252.21 320.177 1252.21 303.738C1252.21 284.524 1256.05 268.191 1263.74 254.741C1271.64 241.078 1281.88 230.617 1294.48 223.358C1307.08 216.099 1320.42 212.47 1334.51 212.47C1345.4 212.47 1355.65 214.712 1365.25 219.195C1375.07 223.678 1383.72 229.869 1391.19 237.769C1398.67 245.454 1404.54 254.421 1408.81 264.669C1413.29 274.916 1415.53 285.805 1415.53 297.333C1415.32 302.457 1413.29 306.62 1409.45 309.822C1405.6 313.025 1401.12 314.626 1396 314.626H1273.67L1264.06 282.602H1381.59L1374.54 289.007V280.36C1374.11 274.169 1371.87 268.618 1367.82 263.708C1363.97 258.798 1359.06 254.955 1353.08 252.179C1347.32 249.191 1341.13 247.696 1334.51 247.696C1328.11 247.696 1322.13 248.55 1316.58 250.258C1311.03 251.966 1306.22 254.848 1302.17 258.904C1298.11 262.961 1294.91 268.405 1292.56 275.237C1290.21 282.068 1289.04 290.715 1289.04 301.176C1289.04 312.705 1291.39 322.525 1296.08 330.638C1300.99 338.537 1307.18 344.622 1314.66 348.892C1322.34 352.948 1330.45 354.976 1338.99 354.976C1346.89 354.976 1353.19 354.336 1357.89 353.055C1362.58 351.774 1366.32 350.279 1369.1 348.571C1372.09 346.65 1374.75 345.049 1377.1 343.768C1380.95 341.846 1384.57 340.886 1387.99 340.886C1392.69 340.886 1396.53 342.487 1399.52 345.689C1402.72 348.892 1404.32 352.628 1404.32 356.898C1404.32 362.662 1401.33 367.892 1395.36 372.589C1389.81 377.286 1382.01 381.449 1371.98 385.079C1361.94 388.494 1351.59 390.202 1340.92 390.202Z" fill="white"/>
<path d="M302.485 224.864C319.278 225.867 331.952 240.659 331.952 257.458V311.079L368.707 333.266V259.836L316.268 228.139C301.218 219.475 281.996 224.599 273.335 239.655C270.431 244.674 269.111 250.168 269.164 255.557C269.533 237.859 284.478 223.754 302.485 224.864Z" fill="#4048FF"/>
<path opacity="0.2" d="M273.496 357.303C273.126 357.937 272.809 358.571 272.492 359.205C272.809 358.518 273.126 357.884 273.496 357.303Z" fill="white"/>
<path d="M273.496 357.303C273.126 357.937 272.809 358.571 272.492 359.205C272.809 358.518 273.126 357.884 273.496 357.303Z" fill="url(#paint1_linear_1260_1580)"/>
<path opacity="0.2" d="M271.646 360.895C271.329 361.687 271.065 362.479 270.748 363.325C271.065 362.479 271.329 361.687 271.646 360.895Z" fill="white"/>
<path d="M271.646 360.895C271.329 361.687 271.065 362.479 270.748 363.325C271.065 362.479 271.329 361.687 271.646 360.895Z" fill="url(#paint2_linear_1260_1580)"/>
<path opacity="0.2" d="M270.538 364.169C270.274 365.067 270.063 365.965 269.852 366.916C270.01 365.965 270.274 365.067 270.538 364.169Z" fill="white"/>
<path d="M270.538 364.169C270.274 365.067 270.063 365.965 269.852 366.916C270.01 365.965 270.274 365.067 270.538 364.169Z" fill="url(#paint3_linear_1260_1580)"/>
<path opacity="0.2" d="M277.984 351.332C278.09 351.226 278.196 351.12 278.301 351.015C278.196 351.12 278.09 351.226 277.984 351.332Z" fill="white"/>
<path d="M277.984 351.332C278.09 351.226 278.196 351.12 278.301 351.015C278.196 351.12 278.09 351.226 277.984 351.332Z" fill="url(#paint4_linear_1260_1580)"/>
<path opacity="0.2" d="M275.712 353.974C275.553 354.185 275.395 354.343 275.236 354.555C275.395 354.343 275.553 354.132 275.712 353.974Z" fill="white"/>
<path d="M275.712 353.974C275.553 354.185 275.395 354.343 275.236 354.555C275.395 354.343 275.553 354.132 275.712 353.974Z" fill="url(#paint5_linear_1260_1580)"/>
<path opacity="0.9" d="M275.239 354.555C274.605 355.453 274.024 356.351 273.443 357.302C274.024 356.351 274.605 355.4 275.239 354.555Z" fill="url(#paint6_linear_1260_1580)"/>
<path opacity="0.9" d="M277.986 351.332C277.193 352.177 276.454 353.023 275.715 353.973C276.401 353.023 277.193 352.177 277.986 351.332Z" fill="url(#paint7_linear_1260_1580)"/>
<path opacity="0.9" d="M270.803 363.325C270.698 363.589 270.592 363.906 270.539 364.17C270.592 363.853 270.698 363.589 270.803 363.325Z" fill="url(#paint8_linear_1260_1580)"/>
<path opacity="0.9" d="M272.491 359.15C272.227 359.731 271.911 360.313 271.646 360.894C271.911 360.313 272.227 359.731 272.491 359.15Z" fill="url(#paint9_linear_1260_1580)"/>
<path opacity="0.9" d="M278.301 351.016C280.255 349.061 282.473 347.318 284.955 345.892L332.007 318.949V318.896L284.955 345.839C282.42 347.265 280.202 349.061 278.301 351.016Z" fill="url(#paint10_linear_1260_1580)"/>
<path opacity="0.2" d="M269.113 367.074H269.746C269.746 367.021 269.799 366.969 269.799 366.916C270.01 366.018 270.222 365.067 270.486 364.169C270.591 363.905 270.644 363.588 270.75 363.323C271.014 362.531 271.278 361.686 271.648 360.893C271.912 360.312 272.176 359.731 272.492 359.15C272.809 358.516 273.126 357.882 273.496 357.248C274.024 356.297 274.658 355.399 275.291 354.501C275.45 354.29 275.608 354.131 275.767 353.92C276.453 353.022 277.192 352.124 278.037 351.279C278.143 351.173 278.249 351.067 278.354 350.962C280.308 349.007 282.473 347.211 285.008 345.785L332.06 318.842V312.45L285.008 339.392C274.71 345.309 269.007 356.033 269.113 367.074Z" fill="white"/>
<path fill-rule="evenodd" clip-rule="evenodd" d="M269.007 373.626C268.979 372.473 269.037 371.32 269.166 370.167V367.076H269.112C269.105 366.349 269.123 365.623 269.166 364.9V256.242C269.166 256.103 269.181 255.978 269.195 255.861C269.207 255.755 269.219 255.655 269.219 255.556C269.272 266.333 274.869 276.845 284.903 282.604L332.008 311.078V312.481L332.059 312.452V318.844L285.007 345.786C283.519 346.623 282.158 347.588 280.892 348.638C282.142 347.632 283.478 346.709 284.902 345.891L331.954 318.949V372.2C331.954 383.505 326.251 393.859 317.273 399.776L316.006 400.515C300.956 409.126 281.733 403.896 273.126 388.84C270.538 384.297 269.218 379.384 269.007 374.471V373.626Z" fill="url(#paint11_linear_1260_1580)"/>
<path d="M284.848 282.603L331.953 311.078V257.457C331.953 240.605 319.279 225.866 302.486 224.863C284.478 223.806 269.534 237.858 269.164 255.556C269.217 266.332 274.815 276.792 284.848 282.603Z" fill="url(#paint12_linear_1260_1580)"/>
<path opacity="0.9" d="M284.848 282.603L331.953 311.078V257.457C331.953 240.605 319.279 225.866 302.486 224.863C284.478 223.806 269.534 237.858 269.164 255.556C269.217 266.332 274.815 276.792 284.848 282.603Z" fill="#4048FF"/>
<path opacity="0.2" d="M269.166 119.787C269.166 120.051 269.113 120.368 269.113 120.632V121.213C269.483 127.236 271.542 133.1 275.186 137.96C271.331 132.677 269.272 126.285 269.166 119.787Z" fill="white"/>
<path d="M269.166 119.787C269.166 120.051 269.113 120.368 269.113 120.632V121.213C269.483 127.236 271.542 133.1 275.186 137.96C271.331 132.677 269.272 126.285 269.166 119.787Z" fill="url(#paint13_linear_1260_1580)"/>
<path d="M331.9 168.284L332.006 168.336V168.072L331.9 168.02C331.9 168.125 331.9 168.178 331.9 168.284Z" fill="url(#paint14_linear_1260_1580)"/>
<path opacity="0.2" d="M331.9 168.02L332.006 168.072V166.382C331.953 166.963 331.9 167.491 331.9 168.02Z" fill="white"/>
<path d="M331.9 168.02L332.006 168.072V166.382C331.953 166.963 331.9 167.491 331.9 168.02Z" fill="url(#paint15_linear_1260_1580)"/>
<path d="M300.534 89.2002C283.741 89.2002 270.064 102.407 269.219 118.995H269.641C271.331 127.553 276.506 135.319 284.639 139.968L331.955 161.733V120.58C331.955 120.263 331.902 119.946 331.902 119.682C331.902 118.837 331.849 117.939 331.743 117.093C330.001 101.403 316.693 89.2002 300.534 89.2002Z" fill="url(#paint16_linear_1260_1580)"/>
<path d="M284.636 146.308C280.834 144.142 277.665 141.289 275.236 138.014C277.771 141.447 280.992 144.459 284.953 146.73L331.899 168.284C331.899 168.231 331.899 168.126 331.899 168.073L284.636 146.308Z" fill="url(#paint17_linear_1260_1580)"/>
<path d="M284.636 146.308C280.834 144.142 277.665 141.289 275.236 138.014C277.771 141.447 280.992 144.459 284.953 146.73L331.899 168.284C331.899 168.231 331.899 168.126 331.899 168.073L284.636 146.308Z" fill="url(#paint18_linear_1260_1580)"/>
<path opacity="0.2" d="M284.637 139.968C276.504 135.319 271.329 127.5 269.639 118.995H269.217C269.217 119.259 269.164 119.523 269.164 119.84C269.27 126.338 271.329 132.73 275.237 138.066C277.719 141.341 280.887 144.194 284.637 146.36L331.9 168.125C331.953 167.597 332.006 167.069 332.006 166.487V161.786L284.637 139.968Z" fill="white"/>
<path d="M284.637 139.968C276.504 135.319 271.329 127.5 269.639 118.995H269.217C269.217 119.259 269.164 119.523 269.164 119.84C269.27 126.338 271.329 132.73 275.237 138.066C277.719 141.341 280.887 144.194 284.637 146.36L331.9 168.125C331.953 167.597 332.006 167.069 332.006 166.487V161.786L284.637 139.968Z" fill="url(#paint19_linear_1260_1580)"/>
<path fill-rule="evenodd" clip-rule="evenodd" d="M269.639 118.995C271.329 127.5 276.504 135.319 284.637 139.968L332.006 161.786V166.487C332.006 167.068 331.953 167.597 331.9 168.125L284.637 146.36C281.698 144.662 279.117 142.543 276.943 140.129C279.155 142.686 281.843 144.903 284.954 146.729L331.9 168.282C330.949 184.765 317.325 197.866 300.585 197.866C283.211 197.866 269.164 183.814 269.164 166.433V121.213C269.407 125.173 270.381 129.064 272.055 132.647C270.211 128.626 269.236 124.258 269.164 119.84C269.164 119.675 269.178 119.523 269.192 119.379C269.205 119.247 269.217 119.121 269.217 118.995H269.269C270.114 102.407 283.792 89.2002 300.584 89.2002C316.744 89.2002 330.051 101.403 331.794 117.093C331.9 117.939 331.952 118.837 331.952 119.682C331.952 119.808 331.964 119.946 331.977 120.09L331.977 120.09C331.991 120.249 332.005 120.414 332.005 120.58V161.733L284.689 139.968C276.557 135.319 271.382 127.553 269.692 118.995H269.639Z" fill="url(#paint20_linear_1260_1580)"/>
<path d="M400.179 122.467C384.02 122.467 370.712 134.671 368.969 150.361C369.973 140.376 375.359 131.448 383.333 126.113L384.6 125.373C399.651 116.762 418.873 121.939 427.481 137.048C430.068 141.591 431.441 146.557 431.6 151.417C431.6 151.681 431.6 151.945 431.6 152.21H431.494C430.649 135.622 416.972 122.467 400.179 122.467Z" fill="#4048FF"/>
<path d="M400.181 122.468C416.974 122.468 430.651 135.675 431.496 152.263H431.074C429.384 160.821 424.209 168.587 416.076 173.235L368.76 195V153.848C368.76 153.531 368.813 153.214 368.813 152.949C368.813 152.104 368.866 151.206 368.971 150.361C370.714 134.671 384.022 122.468 400.181 122.468Z" fill="#4048FF"/>
<path opacity="0.6" d="M400.126 122.468C416.919 122.468 430.596 135.675 431.441 152.263H431.019C429.329 160.821 424.154 168.587 416.021 173.235L368.705 195V153.848C368.705 153.531 368.758 153.214 368.758 152.949C368.758 152.104 368.811 151.206 368.917 150.361C370.659 134.671 383.967 122.468 400.126 122.468Z" fill="#4048FF"/>
<path d="M416.077 179.574C419.879 177.408 423.047 174.556 425.477 171.28C422.942 174.714 419.72 177.725 415.76 179.997L368.814 201.551C368.814 201.498 368.814 201.392 368.814 201.339L416.077 179.574Z" fill="#4048FF"/>
<path d="M416.077 179.574C419.879 177.408 423.047 174.556 425.477 171.28C422.942 174.714 419.72 177.725 415.76 179.997L368.814 201.551C368.814 201.498 368.814 201.392 368.814 201.339L416.077 179.574Z" fill="#4048FF"/>
<path opacity="0.2" d="M416.076 173.234C424.209 168.586 429.384 160.767 431.074 152.262H431.496C431.496 152.526 431.549 152.79 431.549 153.107C431.443 159.605 429.384 165.997 425.476 171.333C422.994 174.608 419.825 177.461 416.076 179.627L368.813 201.392C368.76 200.863 368.707 200.335 368.707 199.754V195.052L416.076 173.234Z" fill="#4048FF"/>
<path d="M416.076 173.234C424.209 168.586 429.384 160.767 431.074 152.262H431.496C431.496 152.526 431.549 152.79 431.549 153.107C431.443 159.605 429.384 165.997 425.476 171.333C422.994 174.608 419.825 177.461 416.076 179.627L368.813 201.392C368.76 200.863 368.707 200.335 368.707 199.754V195.052L416.076 173.234Z" fill="#4048FF"/>
<path d="M416.076 173.234C424.209 168.586 429.384 160.767 431.074 152.262H431.496C431.496 152.526 431.549 152.79 431.549 153.107C431.443 159.605 429.384 165.997 425.476 171.333C422.994 174.608 419.825 177.461 416.076 179.627L368.812 205.664C368.76 205.136 368.707 204.608 368.707 204.027L368.707 195.052L416.076 173.234Z" fill="#4048FF"/>
<path d="M427.326 331.258C418.665 346.314 399.443 351.438 384.393 342.774L368.709 333.265V414.831C368.709 430.838 380.168 444.89 395.694 447.162L415.972 437.811C424.105 433.163 429.28 425.344 430.97 416.839H431.498C431.498 416.575 431.551 416.311 431.551 416.099V151.114C431.551 151.062 431.551 151.009 431.551 151.009C431.656 162.05 426.006 172.774 415.761 178.638L368.709 205.58V259.834L415.814 288.309C430.864 296.972 436.039 316.202 427.326 331.258Z" fill="#4048FF"/>
<path d="M384.393 342.722C399.443 351.386 418.665 346.262 427.326 331.206C435.986 316.15 430.864 296.92 415.814 288.256L368.709 259.782V333.213L384.393 342.722Z" fill="#4048FF"/>
<path opacity="0.2" d="M415.761 178.638C426.006 172.774 431.709 161.997 431.551 151.009C431.656 161.997 426.006 172.774 415.761 178.638Z" fill="white"/>
<path opacity="0.2" d="M415.761 178.638C426.006 172.774 431.709 161.997 431.551 151.009C431.656 161.997 426.006 172.774 415.761 178.638Z" fill="white"/>
<path opacity="0.2" d="M415.972 444.204C426.111 438.393 431.708 427.774 431.603 416.839H431.497C431.075 434.483 416.13 448.536 398.175 447.426C397.33 447.373 396.485 447.268 395.693 447.162" fill="white"/>
<path d="M415.972 437.812L395.693 447.162C396.538 447.268 397.33 447.373 398.175 447.426C416.13 448.483 431.075 434.483 431.497 416.839H430.969C429.279 425.397 424.104 433.163 415.972 437.812Z" fill="url(#paint21_linear_1260_1580)"/>
<path d="M415.972 437.812L395.693 447.162C396.538 447.268 397.33 447.373 398.175 447.426C416.13 448.483 431.075 434.483 431.497 416.839H430.969C429.279 425.397 424.104 433.163 415.972 437.812Z" fill="url(#paint22_linear_1260_1580)"/>
<path d="M300.534 89.2536C316.693 89.2536 330.001 101.457 331.744 117.147C330.74 107.162 325.354 98.2344 317.38 92.8987L316.112 92.1592C301.062 83.5482 281.84 88.7253 273.232 103.834C270.645 108.377 269.272 113.343 269.113 118.203C269.113 118.467 269.113 118.732 269.113 118.996H269.219C270.064 102.408 283.741 89.2536 300.534 89.2536Z" fill="#9CFFD5"/>
</svg>
