<svg width="27" height="19" viewBox="0 0 27 19" fill="none" xmlns="http://www.w3.org/2000/svg">
<path d="M0.743164 3.33316C0.743164 1.65735 2.17917 0.298828 3.95057 0.298828H23.195C24.9664 0.298828 26.4024 1.65735 26.4024 3.33316V15.4705C26.4024 17.1463 24.9664 18.5048 23.195 18.5048H3.95057C2.17917 18.5048 0.743164 17.1463 0.743164 15.4705V3.33316ZM3.95057 1.816C3.06487 1.816 2.34687 2.49526 2.34687 3.33316V3.66225L13.5728 10.0344L24.7987 3.66225V3.33316C24.7987 2.49526 24.0807 1.816 23.195 1.816H3.95057ZM24.7987 5.43155L17.1686 9.7626L24.7987 14.1256V5.43155ZM24.7434 15.8668L15.6127 10.6457L13.5728 11.8037L11.5328 10.6457L2.40212 15.8668C2.58632 16.5125 3.20979 16.9877 3.95057 16.9877H23.195C23.9358 16.9877 24.5593 16.5125 24.7434 15.8668ZM2.34687 14.1256L9.977 9.7626L2.34687 5.43155V14.1256Z" fill="#75758F"/>
</svg>
