<svg width="342" height="100" viewBox="0 0 342 100" fill="none" xmlns="http://www.w3.org/2000/svg">
<path d="M131.147 65.2537C131.147 65.9366 130.929 66.5109 130.495 66.9765C130.06 67.4111 129.501 67.6284 128.819 67.6284C128.167 67.6284 127.608 67.4111 127.142 66.9765C126.708 66.5109 126.49 65.9366 126.49 65.2537V45.3244C126.49 44.6415 126.708 44.0827 127.142 43.6481C127.608 43.1825 128.167 42.9497 128.819 42.9497C129.501 42.9497 130.06 43.1825 130.495 43.6481C130.929 44.0827 131.147 44.6415 131.147 45.3244V65.2537ZM128.772 39.8765C127.872 39.8765 127.22 39.7212 126.816 39.4108C126.413 39.0694 126.211 38.5106 126.211 37.7345V36.9895C126.211 36.2134 126.428 35.6702 126.863 35.3598C127.297 35.0494 127.949 34.8941 128.819 34.8941C129.75 34.8941 130.417 35.0649 130.821 35.4063C131.224 35.7168 131.426 36.2445 131.426 36.9895V37.7345C131.426 38.5416 131.209 39.1004 130.774 39.4108C130.371 39.7212 129.703 39.8765 128.772 39.8765ZM140.437 35.0338C141.058 35.0338 141.601 35.2667 142.067 35.7323C142.563 36.1669 142.812 36.7257 142.812 37.4086V65.2537C142.781 65.9366 142.517 66.5109 142.02 66.9765C141.554 67.4111 140.996 67.6284 140.344 67.6284C139.63 67.6284 139.04 67.4111 138.574 66.9765C138.14 66.5109 137.922 65.9366 137.922 65.2537V37.4086C137.922 36.7257 138.155 36.1669 138.621 35.7323C139.087 35.2667 139.692 35.0338 140.437 35.0338ZM161.437 35.0338C162.182 35.0338 162.772 35.2667 163.207 35.7323C163.641 36.1669 163.858 36.7257 163.858 37.4086V65.2537C163.858 65.9366 163.626 66.5109 163.16 66.9765C162.725 67.4111 162.136 67.6284 161.391 67.6284C160.739 67.6284 160.18 67.4111 159.714 66.9765C159.249 66.5109 159.016 65.9366 159.016 65.2537V37.4086C159.016 36.7257 159.249 36.1669 159.714 35.7323C160.211 35.2667 160.785 35.0338 161.437 35.0338ZM140.251 48.9098H161.484L161.437 53.3799H140.204L140.251 48.9098ZM190.947 42.7634C191.63 42.7634 192.189 42.9962 192.623 43.4619C193.058 43.8965 193.275 44.4552 193.275 45.1382V65.2537C193.275 65.9366 193.058 66.5109 192.623 66.9765C192.189 67.4111 191.63 67.6284 190.947 67.6284C190.295 67.6284 189.736 67.4111 189.271 66.9765C188.836 66.5109 188.619 65.9366 188.619 65.2537V61.9011L189.596 62.0408C189.596 62.5995 189.364 63.2204 188.898 63.9033C188.463 64.5863 187.858 65.2537 187.082 65.9056C186.306 66.5264 185.39 67.0541 184.335 67.4887C183.279 67.8923 182.146 68.0941 180.936 68.0941C178.794 68.0941 176.869 67.5508 175.162 66.4643C173.454 65.3468 172.104 63.8257 171.111 61.9011C170.117 59.9765 169.621 57.788 169.621 55.3356C169.621 52.8212 170.117 50.6172 171.111 48.7236C172.104 46.7989 173.439 45.2934 175.115 44.2069C176.823 43.1204 178.716 42.5772 180.796 42.5772C182.131 42.5772 183.357 42.7944 184.474 43.229C185.623 43.6636 186.616 44.2224 187.455 44.9053C188.293 45.5883 188.929 46.3178 189.364 47.0938C189.829 47.8389 190.062 48.5528 190.062 49.2358L188.619 49.3755V45.1382C188.619 44.4863 188.836 43.9275 189.271 43.4619C189.736 42.9962 190.295 42.7634 190.947 42.7634ZM181.448 63.8102C182.907 63.8102 184.195 63.4377 185.313 62.6927C186.43 61.9476 187.299 60.9388 187.92 59.666C188.541 58.3622 188.851 56.9188 188.851 55.3356C188.851 53.7214 188.541 52.2779 187.92 51.0052C187.299 49.7324 186.43 48.7236 185.313 47.9785C184.195 47.2335 182.907 46.861 181.448 46.861C180.02 46.861 178.747 47.2335 177.63 47.9785C176.543 48.7236 175.674 49.7324 175.022 51.0052C174.401 52.2779 174.091 53.7214 174.091 55.3356C174.091 56.9188 174.401 58.3622 175.022 59.666C175.674 60.9388 176.543 61.9476 177.63 62.6927C178.747 63.4377 180.02 63.8102 181.448 63.8102ZM199.811 42.9031C200.277 42.9031 200.712 43.0273 201.115 43.2756C201.55 43.5239 201.86 43.8965 202.046 44.3931L209.357 61.2958L208.472 61.7148L215.876 44.4397C216.31 43.4153 217.009 42.9186 217.971 42.9497C218.592 42.9497 219.104 43.1514 219.508 43.555C219.942 43.9275 220.16 44.4242 220.16 45.045C220.16 45.2313 220.129 45.4331 220.067 45.6504C220.005 45.8366 219.927 46.0229 219.834 46.2091L210.987 66.1384C210.583 67.0697 209.916 67.5663 208.984 67.6284C208.519 67.6905 208.053 67.5974 207.588 67.349C207.153 67.0697 206.811 66.6661 206.563 66.1384L197.763 46.2091C197.701 46.085 197.638 45.9297 197.576 45.7435C197.514 45.5262 197.483 45.2778 197.483 44.9985C197.483 44.5328 197.685 44.0672 198.089 43.6016C198.523 43.1359 199.097 42.9031 199.811 42.9031ZM236.08 68.0941C233.503 68.0941 231.268 67.5663 229.375 66.5109C227.481 65.4244 226.007 63.9499 224.951 62.0873C223.927 60.1937 223.414 58.0363 223.414 55.615C223.414 52.8832 223.958 50.5551 225.044 48.6304C226.162 46.6748 227.605 45.1847 229.375 44.1603C231.144 43.1049 233.022 42.5772 235.009 42.5772C236.53 42.5772 237.973 42.8876 239.339 43.5084C240.705 44.0982 241.916 44.9364 242.971 46.0229C244.058 47.0783 244.911 48.3355 245.532 49.7945C246.153 51.2225 246.479 52.7901 246.51 54.4975C246.479 55.1183 246.231 55.6305 245.765 56.0341C245.299 56.4376 244.756 56.6394 244.135 56.6394H226.022L224.905 52.6815H242.412L241.528 53.5196V52.3555C241.466 51.269 241.109 50.3222 240.457 49.5151C239.805 48.677 238.998 48.0406 238.035 47.606C237.073 47.1404 236.064 46.9076 235.009 46.9076C234.078 46.9076 233.177 47.0628 232.308 47.3732C231.47 47.6526 230.709 48.1182 230.027 48.7701C229.375 49.422 228.847 50.2912 228.443 51.3777C228.071 52.4331 227.885 53.7524 227.885 55.3356C227.885 57.0429 228.242 58.533 228.956 59.8057C229.67 61.0785 230.632 62.0718 231.842 62.7858C233.053 63.4687 234.388 63.8102 235.847 63.8102C236.996 63.8102 237.942 63.7015 238.687 63.4842C239.432 63.2359 240.053 62.941 240.55 62.5995C241.047 62.2581 241.481 61.9321 241.854 61.6217C242.319 61.3423 242.785 61.2026 243.251 61.2026C243.809 61.2026 244.275 61.4044 244.648 61.808C245.02 62.1805 245.206 62.6306 245.206 63.1583C245.206 63.8412 244.865 64.4621 244.182 65.0209C243.344 65.828 242.18 66.5419 240.69 67.1628C239.231 67.7836 237.694 68.0941 236.08 68.0941ZM253.543 67.5819C252.767 67.5819 252.161 67.3646 251.727 66.93C251.323 66.4954 251.121 65.89 251.121 65.114V64.2758C251.121 63.4998 251.323 62.8944 251.727 62.4598C252.161 62.0253 252.767 61.808 253.543 61.808H254.055C254.831 61.808 255.421 62.0253 255.824 62.4598C256.228 62.8944 256.43 63.4998 256.43 64.2758V65.114C256.43 65.89 256.228 66.4954 255.824 66.93C255.421 67.3646 254.831 67.5819 254.055 67.5819H253.543ZM266.654 65.2537C266.654 65.9366 266.437 66.5109 266.002 66.9765C265.568 67.4111 265.009 67.6284 264.326 67.6284C263.674 67.6284 263.115 67.4111 262.65 66.9765C262.215 66.5109 261.998 65.9366 261.998 65.2537V45.3244C261.998 44.6415 262.215 44.0827 262.65 43.6481C263.115 43.1825 263.674 42.9497 264.326 42.9497C265.009 42.9497 265.568 43.1825 266.002 43.6481C266.437 44.0827 266.654 44.6415 266.654 45.3244V65.2537ZM264.28 39.8765C263.379 39.8765 262.727 39.7212 262.324 39.4108C261.92 39.0694 261.719 38.5106 261.719 37.7345V36.9895C261.719 36.2134 261.936 35.6702 262.37 35.3598C262.805 35.0494 263.457 34.8941 264.326 34.8941C265.257 34.8941 265.925 35.0649 266.328 35.4063C266.732 35.7168 266.934 36.2445 266.934 36.9895V37.7345C266.934 38.5416 266.716 39.1004 266.282 39.4108C265.878 39.7212 265.211 39.8765 264.28 39.8765ZM296.386 55.3822C296.386 57.8656 295.843 60.0696 294.756 61.9942C293.67 63.8878 292.195 65.3778 290.333 66.4643C288.47 67.5508 286.375 68.0941 284.047 68.0941C281.718 68.0941 279.623 67.5508 277.76 66.4643C275.898 65.3778 274.408 63.8878 273.29 61.9942C272.204 60.0696 271.661 57.8656 271.661 55.3822C271.661 52.8677 272.204 50.6637 273.29 48.7701C274.408 46.8455 275.898 45.3399 277.76 44.2534C279.623 43.1359 281.718 42.5772 284.047 42.5772C286.375 42.5772 288.47 43.1359 290.333 44.2534C292.195 45.3399 293.67 46.8455 294.756 48.7701C295.843 50.6637 296.386 52.8677 296.386 55.3822ZM291.73 55.3822C291.73 53.6748 291.388 52.2003 290.705 50.9586C290.022 49.6859 289.091 48.6925 287.911 47.9785C286.763 47.2335 285.475 46.861 284.047 46.861C282.619 46.861 281.315 47.2335 280.135 47.9785C278.956 48.6925 278.024 49.6859 277.341 50.9586C276.658 52.2003 276.317 53.6748 276.317 55.3822C276.317 57.0274 276.658 58.4864 277.341 59.7592C278.024 61.0319 278.956 62.0253 280.135 62.7392C281.315 63.4532 282.619 63.8102 284.047 63.8102C285.475 63.8102 286.763 63.4532 287.911 62.7392C289.091 62.0253 290.022 61.0319 290.705 59.7592C291.388 58.4864 291.73 57.0274 291.73 55.3822Z" fill="#212121"/>
<path d="M70.4424 62.5424C70.4424 60.1426 72.3878 58.1973 74.7875 58.1973V58.1973C77.1872 58.1973 79.1326 60.1426 79.1326 62.5424V69.3118C79.1326 71.7115 77.1872 73.6569 74.7875 73.6569V73.6569C72.3878 73.6569 70.4424 71.7115 70.4424 69.3118V62.5424Z" fill="#4048FF"/>
<circle cx="74.7875" cy="49.9999" r="4.3451" fill="#212121"/>
<path d="M42.4399 33.7372C42.4399 29.6534 45.7505 26.3428 49.8344 26.3428H51.1302V45.6549H67.9094C67.1136 46.9119 66.653 48.4022 66.653 50C66.653 51.5978 67.1137 53.0881 67.9095 54.3451L51.1302 54.3451V73.6571H49.8344C45.7505 73.6571 42.4399 70.3465 42.4399 66.2626V33.7372Z" fill="#4048FF"/>
<path d="M98.4446 26.3428H99.7404C103.824 26.3428 107.135 29.6534 107.135 33.7372V66.2626C107.135 70.3465 103.824 73.6571 99.7404 73.6571H98.4446V26.3428Z" fill="#4048FF"/>
<path d="M98.4444 54.3451L81.6651 54.3451C82.4609 53.0881 82.9216 51.5978 82.9216 50C82.9216 48.4022 82.4609 46.9119 81.6651 45.6549H98.4444V54.3451Z" fill="#4048FF"/>
</svg>
