<svg width="25" height="24" viewBox="0 0 25 24" fill="none" xmlns="http://www.w3.org/2000/svg">
<g clip-path="url(#clip0_1815_27495)">
<path d="M12.9024 20.6948C12.593 20.8734 12.2118 20.8734 11.9024 20.6948L5.31033 16.8888C5.00093 16.7102 4.81033 16.3801 4.81033 16.0228L4.81033 8.41091C4.81033 8.05364 5.00093 7.72351 5.31033 7.54488L11.9024 3.73893C12.2118 3.5603 12.593 3.5603 12.9024 3.73894L19.4945 7.54488C19.8039 7.72351 19.9945 8.05364 19.9945 8.41091L19.9945 16.0228C19.9945 16.3801 19.8039 16.7102 19.4945 16.8888L12.9024 20.6948Z" fill="#4048FF"/>
<path d="M12.4017 17.7848L7.70675 15.0742L7.70675 9.65286L12.4017 6.94221L17.0967 9.65286L17.0967 15.0742L12.4017 17.7848Z" stroke="white" stroke-width="2"/>
<path d="M5.30886 12.3629H1.27032" stroke="#4048FF" stroke-width="1.2"/>
<circle r="1.50827" transform="matrix(-4.37114e-08 1 1 4.37114e-08 2.26529 12.3632)" fill="#4048FF"/>
<path d="M5.85167 8.2469L3.78064 8.2469C3.22836 8.2469 2.78064 7.79919 2.78064 7.2469L2.78064 5.50417" stroke="#4048FF" stroke-width="1.2"/>
<circle r="1.50827" transform="matrix(-4.37114e-08 1 1 4.37114e-08 2.78067 4.52455)" fill="#4048FF"/>
<path d="M5.85167 16.324L3.78064 16.324C3.22836 16.324 2.78064 16.7717 2.78064 17.324L2.78064 19.0667" stroke="#4048FF" stroke-width="1.2"/>
<circle cx="2.78067" cy="20.0463" r="1.50827" transform="rotate(-90 2.78067 20.0463)" fill="#4048FF"/>
<path d="M19.5208 12.3627H23.5594" stroke="#4048FF" stroke-width="1.2"/>
<circle cx="22.5644" cy="12.363" r="1.50827" transform="rotate(90 22.5644 12.363)" fill="#4048FF"/>
<path d="M18.9777 8.24673L21.0487 8.24673C21.601 8.24673 22.0487 7.79901 22.0487 7.24673L22.0487 5.504" stroke="#4048FF" stroke-width="1.2"/>
<circle cx="22.0487" cy="4.52437" r="1.50827" transform="rotate(90 22.0487 4.52437)" fill="#4048FF"/>
<path d="M18.9777 16.3238L21.0487 16.3238C21.601 16.3238 22.0487 16.7715 22.0487 17.3238L22.0487 19.0665" stroke="#4048FF" stroke-width="1.2"/>
<circle r="1.50827" transform="matrix(4.37114e-08 -1 -1 -4.37114e-08 22.0487 20.0461)" fill="#4048FF"/>
<path d="M12.4025 19.6975L12.4025 23.165" stroke="#4048FF" stroke-width="1.2"/>
<circle r="1.50827" transform="matrix(1 8.74228e-08 8.74228e-08 -1 12.402 22.4917)" fill="#4048FF"/>
<path d="M12.4024 4.29207L12.4024 0.824562" stroke="#4048FF" stroke-width="1.2"/>
<circle r="1.50827" transform="matrix(-1 -8.74228e-08 -8.74228e-08 1 12.4018 1.50827)" fill="#4048FF"/>
</g>
<defs>
<clipPath id="clip0_1815_27495">
<rect width="24" height="24" fill="white" transform="translate(0.414368)"/>
</clipPath>
</defs>
</svg>
