<svg width="12" height="15" viewBox="0 0 12 15" fill="none" xmlns="http://www.w3.org/2000/svg">
<path d="M10.2162 14.172C10.6229 14.172 10.9525 13.8423 10.9525 13.4356C10.9525 13.0289 10.6229 12.6992 10.2162 12.6992L1.4889 12.6992C1.08222 12.6992 0.752538 13.0289 0.752538 13.4356C0.752537 13.8423 1.08222 14.172 1.4889 14.172L10.2162 14.172ZM10.4942 7.33312C10.7709 7.05137 10.7709 6.59987 10.4942 6.31812C10.2104 6.0291 9.74464 6.0291 9.46077 6.31812L6.5775 9.25381L6.5775 1.08697C6.5775 0.686567 6.25291 0.361975 5.8525 0.361975C5.45209 0.361975 5.1275 0.686568 5.1275 1.08697L5.1275 9.25381L2.24422 6.31812C1.96036 6.0291 1.49463 6.0291 1.21077 6.31812C0.934049 6.59987 0.934049 7.05137 1.21077 7.33312L5.04128 11.2333C5.48692 11.687 6.21808 11.687 6.66372 11.2333L10.4942 7.33312Z" fill="#4048FF" stroke="#4048FF" stroke-width="0.2"/>
</svg>
