<svg width="18" height="24" viewBox="0 0 18 24" fill="none" xmlns="http://www.w3.org/2000/svg">
<path d="M9.25953 2C11.1504 2 12.6833 3.34315 12.6833 5V9H5.8358V5C5.8358 3.34315 7.36866 2 9.25953 2ZM14.3951 9V5C14.3951 2.51472 12.0958 0.5 9.25953 0.5C6.42322 0.5 4.12393 2.51472 4.12393 5V9C2.23305 9 0.700195 10.3431 0.700195 12V20.5C0.700195 22.1569 2.23305 23.5 4.12393 23.5H14.3951C16.286 23.5 17.8189 22.1569 17.8189 20.5V12C17.8189 10.3431 16.286 9 14.3951 9ZM4.12393 10.5H14.3951C15.3406 10.5 16.107 11.1716 16.107 12V20.5C16.107 21.3284 15.3406 22 14.3951 22H4.12393C3.17849 22 2.41206 21.3284 2.41206 20.5V12C2.41206 11.1716 3.17849 10.5 4.12393 10.5Z" fill="#212529"/>
</svg>
