<svg width="139" height="138" viewBox="0 0 139 138" fill="none" xmlns="http://www.w3.org/2000/svg">
<path d="M138.54 68.895C138.54 106.945 107.695 137.79 69.645 137.79C31.5953 137.79 0.75 106.945 0.75 68.895C0.75 30.8453 31.5953 0 69.645 0C107.695 0 138.54 30.8453 138.54 68.895Z" fill="#4E54FF"/>
<g filter="url(#filter0_d_248_6684)">
<path d="M60.3908 54.5498C61.0929 60.3785 65.4783 66.0795 69.9751 68.59C73.2749 70.4321 78.6384 72.0987 84.4233 70.1452" stroke="url(#paint0_linear_248_6684)" stroke-width="7.41207" stroke-linecap="round"/>
<path d="M71.0618 65.8735C70.6741 66.8692 70.2469 68.0902 68.0374 69.9767" stroke="#C7D2D7" stroke-opacity="0.3" stroke-width="1.75007" stroke-linecap="round"/>
<path d="M67.7278 63.8784C67.5026 64.4956 67.2603 65.2725 65.7994 65.8266" stroke="#C7D2D7" stroke-opacity="0.3" stroke-width="1.75007" stroke-linecap="round"/>
<path d="M73.7732 67.8882C73.8104 68.4911 73.8875 69.2267 72.9908 70.4876" stroke="#C7D2D7" stroke-opacity="0.3" stroke-width="1.75007" stroke-linecap="round"/>
</g>
<g filter="url(#filter1_d_248_6684)">
<path d="M55.095 46.8699C60.154 46.421 64.9047 49.4085 66.2595 54.3032C69.3138 65.3377 71.8834 79.8887 69.5825 84.6502C67.0562 89.8778 60.5465 91.9768 56.3297 92.5698L56.3306 92.5803C56.0414 92.6199 55.7243 92.6546 55.3835 92.6823C55.0431 92.715 54.7248 92.7367 54.4332 92.7487L54.4322 92.7382C50.1768 92.8969 43.3993 91.9768 39.9921 87.2757C36.8887 82.9937 36.8563 68.2176 37.9199 56.8177C38.3918 51.7609 42.5423 47.9837 47.6012 47.5348L55.095 46.8699Z" fill="url(#paint1_linear_248_6684)"/>
<g filter="url(#filter2_d_248_6684)">
<rect width="9.79251" height="8.18108" rx="0.926508" transform="matrix(-0.996087 0.0883805 0.0883805 0.996087 58.7803 58.6934)" fill="url(#paint2_linear_248_6684)"/>
<rect x="0.140166" y="-0.167461" width="10.1013" height="8.48992" rx="1.08093" transform="matrix(-0.996087 0.0883805 0.0883805 0.996087 59.0749 58.6803)" stroke="#EFF2F3" stroke-width="0.308836"/>
</g>
<path d="M52.9212 62.6845L52.9095 62.6855C53.1058 62.1714 53.566 61.7903 54.1317 61.7401C54.4966 61.7077 54.8424 61.8186 55.1182 62.0279L55.1271 62.0271L55.7062 61.9757C55.3187 61.5035 54.727 61.2256 54.091 61.282C53.1205 61.3681 52.3885 62.2024 52.3671 63.1954L53.5882 63.0869L53.6288 63.5449L52.4075 63.6532L52.4083 63.6567C52.4401 63.8131 52.4892 63.9622 52.5532 64.102L53.6693 64.003L53.7727 65.1687C53.9166 65.2102 54.067 65.2345 54.2209 65.2395L54.1078 63.9642L54.5463 63.9253L54.6594 65.2007C54.8102 65.1687 54.9539 65.1184 55.0882 65.0521L54.9847 63.8863L56.1009 63.7872C56.1579 63.5665 56.1789 63.3314 56.1574 63.0898C56.136 62.8482 56.074 62.6204 55.979 62.4132L55.7193 62.4362L52.9212 62.6845ZM54.5057 63.4672L54.0672 63.5061L54.0266 63.0481L54.4651 63.0092L54.5057 63.4672ZM55.723 63.3592L54.9443 63.4283L54.9037 62.9703L55.6823 62.9012C55.6998 62.975 55.7122 63.0509 55.7191 63.1288C55.726 63.2065 55.7272 63.2835 55.723 63.3592Z" fill="#9FF9FF"/>
<path d="M54.0077 60.3614C52.4761 60.4973 51.3497 61.9042 51.4916 63.5037C51.6335 65.1032 52.9901 66.2898 54.5216 66.1539C56.0532 66.0181 57.1796 64.6111 57.0377 63.0116C56.8958 61.4121 55.5392 60.2255 54.0077 60.3614ZM54.4809 65.6952C53.192 65.8095 52.0503 64.8109 51.9309 63.4647C51.8114 62.1186 52.7595 60.9345 54.0484 60.8202C55.3373 60.7058 56.479 61.7044 56.5984 63.0506C56.7179 64.3968 55.7698 65.5808 54.4809 65.6952Z" fill="#9FF9FF"/>
<g filter="url(#filter3_d_248_6684)">
<ellipse rx="1.00123" ry="1.71659" transform="matrix(-0.996087 0.0883805 0.0883805 0.996087 64.6183 59.9375)" fill="url(#paint3_radial_248_6684)"/>
<path d="M64.7836 61.8012C64.4308 61.8325 64.1182 61.6143 63.8944 61.2984C63.668 60.979 63.511 60.5342 63.4671 60.0397C63.4233 59.5452 63.4995 59.0796 63.666 58.7253C63.8308 58.375 64.1001 58.1051 64.4529 58.0738C64.8057 58.0425 65.1184 58.2608 65.3422 58.5766C65.5685 58.896 65.7255 59.3409 65.7694 59.8354C65.8133 60.3299 65.7371 60.7954 65.5705 61.1497C65.4058 61.5 65.1365 61.7699 64.7836 61.8012Z" stroke="#EFF2F3" stroke-width="0.308836"/>
</g>
<g filter="url(#filter4_d_248_6684)">
<ellipse rx="1.00123" ry="1.71659" transform="matrix(-0.996087 0.0883805 0.0883805 0.996087 65.0345 64.6299)" fill="url(#paint4_radial_248_6684)"/>
<path d="M65.1999 66.4936C64.8471 66.5249 64.5344 66.3066 64.3106 65.9908C64.0843 65.6714 63.9273 65.2265 63.8834 64.732C63.8395 64.2375 63.9157 63.772 64.0823 63.4177C64.247 63.0674 64.5163 62.7975 64.8692 62.7662C65.222 62.7349 65.5346 62.9532 65.7584 63.269C65.9848 63.5884 66.1418 64.0333 66.1857 64.5278C66.2295 65.0223 66.1533 65.4878 65.9868 65.8421C65.822 66.1924 65.5527 66.4623 65.1999 66.4936Z" stroke="#EFF2F3" stroke-width="0.308836"/>
</g>
<path d="M59.371 88.1134L58.9461 82.9837L69.2055 82.1338L69.6304 87.2635L59.371 88.1134ZM69.3558 109.691C68.9647 112.507 66.365 114.472 63.5493 114.081C60.7336 113.69 58.768 111.09 59.1591 108.275L69.3558 109.691ZM69.6304 87.2635C70.0139 91.8932 70.2527 103.233 69.3558 109.691L59.1591 108.275C59.9072 102.888 59.726 92.3985 59.371 88.1134L69.6304 87.2635Z" fill="white"/>
<path d="M40.166 89.8175L39.741 84.6878L50.0004 83.8379L50.4254 88.9676L40.166 89.8175ZM50.1507 111.395C49.7596 114.211 47.16 116.176 44.3442 115.785C41.5285 115.394 39.5629 112.795 39.954 109.979L50.1507 111.395ZM50.4254 88.9676C50.8089 93.5973 51.0476 104.937 50.1507 111.395L39.954 109.979C40.7022 104.593 40.5209 94.1026 40.166 89.8175L50.4254 88.9676Z" fill="white"/>
<path d="M67.7207 86.3579C63.7435 89.8674 53.0563 95.2348 42.1253 88.6289" stroke="#C7D2D7" stroke-opacity="0.3" stroke-width="1.75007" stroke-linecap="round"/>
<path d="M67.6567 94.3579C66.279 94.8763 64.6391 95.5429 60.5037 95.5763" stroke="#C7D2D7" stroke-opacity="0.3" stroke-width="1.75007" stroke-linecap="round"/>
<path d="M49.6196 97.104C48.1777 97.4002 46.4537 97.8019 42.3641 97.1875" stroke="#C7D2D7" stroke-opacity="0.3" stroke-width="1.75007" stroke-linecap="round"/>
<path d="M66.8743 99.4546C66.2106 99.7137 65.421 100.046 63.4199 100.087" stroke="#C7D2D7" stroke-opacity="0.3" stroke-width="1.75007" stroke-linecap="round"/>
<path d="M47.7021 101.545C46.9978 101.653 46.1545 101.804 44.1931 101.405" stroke="#C7D2D7" stroke-opacity="0.3" stroke-width="1.75007" stroke-linecap="round"/>
</g>
<g filter="url(#filter5_d_248_6684)">
<path d="M55.1171 52.8511C42.8001 52.0615 33.4552 41.4365 34.2448 29.1194C35.0344 16.8023 45.6595 7.45745 57.9765 8.24705C70.2936 9.03666 79.6385 19.6617 78.8489 31.9788C78.0593 44.2959 67.4342 53.6407 55.1171 52.8511Z" fill="url(#paint5_radial_248_6684)"/>
<path d="M69.8257 41.8808C70.8642 42.2161 72.006 41.8713 72.6737 41.0034C74.9199 38.1018 76.8881 33.0177 76.6277 29.6271C75.6411 16.6053 56.7046 13.2117 52.3484 23.8755C50.3462 28.7932 51.8358 33.5018 52.5901 35.476C52.8335 36.1037 53.3541 36.5999 53.9978 36.8054L69.8257 41.8808Z" fill="url(#paint6_linear_248_6684)"/>
<g style="mix-blend-mode:multiply">
<path d="M52.2169 23.8523C54.4141 18.4545 60.3508 16.6703 65.7958 17.9002C61.5921 18.0338 67.4097 26.2595 65.7098 30.4202C63.7075 35.3379 55.4434 33.8377 56.1967 35.8268C56.4401 36.4545 56.9607 36.9507 57.6044 37.1562L71.7204 41.6889C71.1167 42.0234 70.3806 42.0957 69.6932 41.8724L53.8653 36.797C53.2215 36.5916 52.701 36.0954 52.4576 35.4677C51.7043 33.4786 50.1988 28.7839 52.2169 23.8523Z" fill="url(#paint7_radial_248_6684)"/>
</g>
<path d="M71.844 23.9941C72.716 24.5793 75.6312 29.3631 73.0239 34.1558" stroke="white" stroke-width="2.09864" stroke-linecap="round"/>
</g>
<path fill-rule="evenodd" clip-rule="evenodd" d="M51.5483 108.11C48.7969 108.322 44.0581 108.285 39.5278 107.049C38.9135 106.881 38.2926 107.34 38.303 107.976L38.4769 118.608C38.4787 118.717 38.4986 118.823 38.5372 118.922C38.5261 119.92 38.5257 122.121 38.6099 123.29C38.6953 124.476 40.4345 125.57 41.2934 125.968C42.1906 127.026 45.1806 129.105 49.9627 128.961C54.7449 128.817 56.0905 127.871 56.1655 127.416C56.1718 127.801 56.1738 127.919 56.1311 125.313C56.1031 123.596 53.1841 121.772 50.2392 120.413C50.2427 120.399 50.2459 120.385 50.2488 120.372L52.5869 109.264C52.7192 108.636 52.1887 108.061 51.5483 108.11Z" fill="#282522"/>
<path d="M46.9476 125.413C51.1501 126.636 54.4047 125.829 55.5067 125.273C56.1876 123.999 52.0264 121.216 49.6431 120.738C46.0875 120.024 44.0737 120.535 43.0604 121.582C41.6802 123.009 42.7452 124.191 46.9476 125.413Z" fill="url(#paint8_linear_248_6684)"/>
<path fill-rule="evenodd" clip-rule="evenodd" d="M70.3569 106.441C67.6055 106.653 62.8667 106.616 58.3364 105.38C57.7221 105.212 57.1012 105.671 57.1116 106.307L57.2855 116.939C57.2873 117.048 57.3071 117.154 57.3458 117.253C57.3347 118.251 57.3343 120.452 57.4184 121.621C57.5038 122.807 59.2431 123.901 60.102 124.299C60.9992 125.357 63.9892 127.436 68.7713 127.292C73.5535 127.148 74.8991 126.202 74.9741 125.747C74.9804 126.132 74.9824 126.25 74.9397 123.644C74.9116 121.927 71.9927 120.103 69.0478 118.744C69.0513 118.73 69.0545 118.716 69.0574 118.703L71.3955 107.595C71.5278 106.967 70.9972 106.392 70.3569 106.441Z" fill="#282522"/>
<path d="M65.7562 123.744C69.9587 124.967 73.2133 124.16 74.3153 123.604C74.9962 122.33 70.835 119.547 68.4517 119.069C64.8961 118.355 62.8823 118.866 61.869 119.913C60.4888 121.34 61.5538 122.522 65.7562 123.744Z" fill="url(#paint9_linear_248_6684)"/>
<g filter="url(#filter6_d_248_6684)">
<path d="M42.8678 54.2122C41.2816 59.8647 43.1462 66.8114 46.3369 70.8541C48.6783 73.8206 52.993 77.4161 59.0849 77.8298" stroke="url(#paint10_linear_248_6684)" stroke-width="7.41207" stroke-linecap="round"/>
<path d="M48.3816 68.7622C47.6418 69.5332 46.7791 70.4971 44.0152 71.3923" stroke="#C7D2D7" stroke-opacity="0.3" stroke-width="1.75007" stroke-linecap="round"/>
<path d="M46.0674 65.6416C45.6228 66.1253 45.1012 66.7499 43.5394 66.7015" stroke="#C7D2D7" stroke-opacity="0.3" stroke-width="1.75007" stroke-linecap="round"/>
<path d="M50.1135 71.6626C49.9167 72.2337 49.7059 72.9427 48.3943 73.7634" stroke="#C7D2D7" stroke-opacity="0.3" stroke-width="1.75007" stroke-linecap="round"/>
</g>
<path d="M76.9392 57.476C77.0047 57.2538 77.1731 57.0766 77.3917 56.9998L90.8091 52.2894C91.3634 52.0948 91.9051 52.6096 91.739 53.1731L84.3456 78.2514C84.2801 78.4736 84.1117 78.6508 83.8931 78.7276L70.4757 83.438C69.9214 83.6326 69.3797 83.1178 69.5458 82.5543L76.9392 57.476Z" fill="url(#paint11_linear_248_6684)"/>
<path d="M77.4271 56.985C77.1639 57.0774 76.9611 57.2907 76.8823 57.5584L69.5915 82.2888C69.3913 82.9673 70.0436 83.5872 70.7111 83.353L70.9744 83.2606C70.9804 83.2214 70.9893 83.1819 71.0009 83.1422L78.2918 58.4117C78.3706 58.144 78.5733 57.9308 78.8366 57.8384L91.6486 53.3404C91.7458 52.7107 91.1308 52.174 90.5025 52.3947L77.4271 56.985Z" fill="url(#paint12_linear_248_6684)" fill-opacity="0.5"/>
<g style="mix-blend-mode:multiply">
<path d="M82.8988 56.2939L81.6155 55.3899C81.5453 55.3405 81.5629 55.2319 81.6451 55.2072L86.2848 53.8117C86.3138 53.803 86.3452 53.8075 86.3706 53.8239L87.6704 54.6678C87.7087 54.6927 87.7261 54.7398 87.713 54.7836L86.9745 57.2572C86.9656 57.287 86.9438 57.3112 86.9151 57.323L82.4695 59.1538C82.3922 59.1857 82.3112 59.1169 82.3301 59.0354L82.9398 56.4013C82.9493 56.3605 82.9331 56.318 82.8988 56.2939Z" fill="url(#paint13_linear_248_6684)"/>
</g>
<path d="M55.8362 80.4756C55.3645 82.5148 56.8856 84.4504 58.9654 84.4575L62.9071 84.4709C63.3901 84.4726 63.8528 84.3678 64.2711 84.1773C74.1201 84.96 77.5149 82.7649 78.3146 80.367C78.4923 77.6997 75.1657 78.7975 72.2007 77.5042C72.0563 77.4413 71.9138 77.3791 71.7739 77.3176C73.6177 77.4864 74.2202 76.368 73.6834 75.3852C73.1771 74.4585 70.4617 74.5015 67.7239 74.8965C67.3515 74.9856 66.8702 75.1191 66.3378 75.2988C65.9867 74.7763 65.4821 74.3548 64.8649 74.1077L61.4896 72.7562C59.6327 72.0127 57.5372 73.1217 57.0822 75.0886L55.8362 80.4756Z" fill="#282522"/>
<path d="M84.4878 79.2755C82.044 77.3419 86.2916 72.0759 88.311 70.183C88.3745 70.1234 88.4756 70.1648 88.4775 70.2518C88.5524 73.7596 86.9465 81.2207 84.4878 79.2755Z" fill="black"/>
<path d="M86.4385 69.1984C87.9821 68.7356 88.7009 69.487 88.4797 70.2581C87.8769 71.2565 86.3353 73.2415 84.9907 73.1942C83.3099 73.135 84.8367 69.6787 86.4385 69.1984Z" fill="black"/>
<g filter="url(#filter7_d_248_6684)">
<path d="M84.968 28.0432C82.5987 28.2534 80.8484 30.3445 81.0586 32.7139L81.8545 41.6841C82.0648 44.0534 84.1559 45.8037 86.5252 45.5935L88.1701 45.4475L88.4892 49.0433C88.5408 49.6249 89.2698 49.8538 89.6446 49.406L93.2478 45.1012C93.2777 45.0654 93.303 45.0283 93.3238 44.9902L102.024 44.2183C104.393 44.0081 106.143 41.917 105.933 39.5476L105.137 30.5774C104.927 28.2081 102.836 26.4578 100.467 26.668L84.968 28.0432Z" fill="white"/>
<path d="M84.968 28.0432C82.5987 28.2534 80.8484 30.3445 81.0586 32.7139L81.8545 41.6841C82.0648 44.0534 84.1559 45.8037 86.5252 45.5935L88.1701 45.4475L88.4892 49.0433C88.5408 49.6249 89.2698 49.8538 89.6446 49.406L93.2478 45.1012C93.2777 45.0654 93.303 45.0283 93.3238 44.9902L102.024 44.2183C104.393 44.0081 106.143 41.917 105.933 39.5476L105.137 30.5774C104.927 28.2081 102.836 26.4578 100.467 26.668L84.968 28.0432Z" stroke="#141CCB" stroke-width="0.823563"/>
</g>
<path d="M96.2608 32.602C96.2608 32.602 96.2608 32.602 96.2608 32.602V32.602Z" fill="#7A7FFF"/>
<path d="M97.4255 33.5689L93.5566 39.3945C93.4999 39.4665 93.4295 39.5266 93.3495 39.5713C93.2681 39.6167 93.1784 39.6453 93.0858 39.6552C92.9931 39.6652 92.8994 39.6563 92.8102 39.6293C92.7211 39.6022 92.6383 39.5574 92.5668 39.4976L89.428 36.8692L89.4244 36.8664C89.351 36.8093 89.2898 36.7379 89.2446 36.6565C89.1993 36.5752 89.1709 36.4856 89.1611 36.393C89.1512 36.3005 89.1601 36.2069 89.1872 36.1178C89.2143 36.0288 89.259 35.9461 89.3188 35.8747C89.3785 35.8034 89.452 35.7448 89.5349 35.7024C89.6178 35.6601 89.7084 35.6348 89.8012 35.6282C89.8941 35.6217 89.9873 35.6338 90.0753 35.6641C90.1633 35.6943 90.2443 35.742 90.3136 35.8042L92.9122 37.9782L96.3478 32.6992C96.3508 32.6948 96.354 32.6905 96.3575 32.6865L96.3849 32.6548C96.5003 32.5336 96.6561 32.4578 96.8237 32.4425C97.0051 32.4259 97.1857 32.4814 97.3265 32.5968C97.4672 32.7123 97.5569 32.8786 97.5761 33.0597C97.5953 33.2408 97.5424 33.4222 97.429 33.5646L97.4255 33.5689Z" fill="#7A7FFF"/>
<g filter="url(#filter8_f_248_6684)">
<path d="M83.4475 128.242C83.4475 129.481 71.6507 130.485 57.0987 130.485C42.5467 130.485 30.75 129.481 30.75 128.242C30.75 127.004 42.5467 126 57.0987 126C71.6507 126 83.4475 127.004 83.4475 128.242Z" fill="url(#paint14_radial_248_6684)" fill-opacity="0.5"/>
</g>
<defs>
<filter id="filter0_d_248_6684" x="53.6856" y="49.6187" width="37.3953" height="27.7996" filterUnits="userSpaceOnUse" color-interpolation-filters="sRGB">
<feFlood flood-opacity="0" result="BackgroundImageFix"/>
<feColorMatrix in="SourceAlpha" type="matrix" values="0 0 0 0 0 0 0 0 0 0 0 0 0 0 0 0 0 0 127 0" result="hardAlpha"/>
<feOffset dy="0.411782"/>
<feGaussianBlur stdDeviation="0.205891"/>
<feComposite in2="hardAlpha" operator="out"/>
<feColorMatrix type="matrix" values="0 0 0 0 0 0 0 0 0 0 0 0 0 0 0 0 0 0 0.25 0"/>
<feBlend mode="normal" in2="BackgroundImageFix" result="effect1_dropShadow_248_6684"/>
<feBlend mode="normal" in="SourceGraphic" in2="effect1_dropShadow_248_6684" result="shape"/>
</filter>
<filter id="filter1_d_248_6684" x="32.9098" y="45.7451" width="41.3629" height="72.5296" filterUnits="userSpaceOnUse" color-interpolation-filters="sRGB">
<feFlood flood-opacity="0" result="BackgroundImageFix"/>
<feColorMatrix in="SourceAlpha" type="matrix" values="0 0 0 0 0 0 0 0 0 0 0 0 0 0 0 0 0 0 127 0" result="hardAlpha"/>
<feOffset dy="0.411782"/>
<feGaussianBlur stdDeviation="0.205891"/>
<feComposite in2="hardAlpha" operator="out"/>
<feColorMatrix type="matrix" values="0 0 0 0 0 0 0 0 0 0 0 0 0 0 0 0 0 0 0.25 0"/>
<feBlend mode="normal" in2="BackgroundImageFix" result="effect1_dropShadow_248_6684"/>
<feBlend mode="normal" in="SourceGraphic" in2="effect1_dropShadow_248_6684" result="shape"/>
</filter>
<filter id="filter2_d_248_6684" x="48.3836" y="58.4629" width="11.762" height="10.2991" filterUnits="userSpaceOnUse" color-interpolation-filters="sRGB">
<feFlood flood-opacity="0" result="BackgroundImageFix"/>
<feColorMatrix in="SourceAlpha" type="matrix" values="0 0 0 0 0 0 0 0 0 0 0 0 0 0 0 0 0 0 127 0" result="hardAlpha"/>
<feOffset dy="0.411782"/>
<feGaussianBlur stdDeviation="0.205891"/>
<feComposite in2="hardAlpha" operator="out"/>
<feColorMatrix type="matrix" values="0 0 0 0 0 0 0 0 0 0 0 0 0 0 0 0 0 0 0.25 0"/>
<feBlend mode="normal" in2="BackgroundImageFix" result="effect1_dropShadow_248_6684"/>
<feBlend mode="normal" in="SourceGraphic" in2="effect1_dropShadow_248_6684" result="shape"/>
</filter>
<filter id="filter3_d_248_6684" x="62.8888" y="57.9165" width="3.45906" height="4.86556" filterUnits="userSpaceOnUse" color-interpolation-filters="sRGB">
<feFlood flood-opacity="0" result="BackgroundImageFix"/>
<feColorMatrix in="SourceAlpha" type="matrix" values="0 0 0 0 0 0 0 0 0 0 0 0 0 0 0 0 0 0 127 0" result="hardAlpha"/>
<feOffset dy="0.411782"/>
<feGaussianBlur stdDeviation="0.205891"/>
<feComposite in2="hardAlpha" operator="out"/>
<feColorMatrix type="matrix" values="0 0 0 0 0 0 0 0 0 0 0 0 0 0 0 0 0 0 0.25 0"/>
<feBlend mode="normal" in2="BackgroundImageFix" result="effect1_dropShadow_248_6684"/>
<feBlend mode="normal" in="SourceGraphic" in2="effect1_dropShadow_248_6684" result="shape"/>
</filter>
<filter id="filter4_d_248_6684" x="63.305" y="62.6089" width="3.45906" height="4.86556" filterUnits="userSpaceOnUse" color-interpolation-filters="sRGB">
<feFlood flood-opacity="0" result="BackgroundImageFix"/>
<feColorMatrix in="SourceAlpha" type="matrix" values="0 0 0 0 0 0 0 0 0 0 0 0 0 0 0 0 0 0 127 0" result="hardAlpha"/>
<feOffset dy="0.411782"/>
<feGaussianBlur stdDeviation="0.205891"/>
<feComposite in2="hardAlpha" operator="out"/>
<feColorMatrix type="matrix" values="0 0 0 0 0 0 0 0 0 0 0 0 0 0 0 0 0 0 0.25 0"/>
<feBlend mode="normal" in2="BackgroundImageFix" result="effect1_dropShadow_248_6684"/>
<feBlend mode="normal" in="SourceGraphic" in2="effect1_dropShadow_248_6684" result="shape"/>
</filter>
<filter id="filter5_d_248_6684" x="24.9106" y="-2.08691" width="63.2722" height="63.2725" filterUnits="userSpaceOnUse" color-interpolation-filters="sRGB">
<feFlood flood-opacity="0" result="BackgroundImageFix"/>
<feColorMatrix in="SourceAlpha" type="matrix" values="0 0 0 0 0 0 0 0 0 0 0 0 0 0 0 0 0 0 127 0" result="hardAlpha"/>
<feOffset dy="-1"/>
<feGaussianBlur stdDeviation="2"/>
<feComposite in2="hardAlpha" operator="out"/>
<feColorMatrix type="matrix" values="0 0 0 0 0.0928125 0 0 0 0 0.3375 0 0 0 0 0.249412 0 0 0 0.3 0"/>
<feBlend mode="normal" in2="BackgroundImageFix" result="effect1_dropShadow_248_6684"/>
<feBlend mode="normal" in="SourceGraphic" in2="effect1_dropShadow_248_6684" result="shape"/>
</filter>
<filter id="filter6_d_248_6684" x="29.451" y="48.1152" width="42.4241" height="38.0199" filterUnits="userSpaceOnUse" color-interpolation-filters="sRGB">
<feFlood flood-opacity="0" result="BackgroundImageFix"/>
<feColorMatrix in="SourceAlpha" type="matrix" values="0 0 0 0 0 0 0 0 0 0 0 0 0 0 0 0 0 0 127 0" result="hardAlpha"/>
<feOffset dy="0.411782"/>
<feGaussianBlur stdDeviation="0.205891"/>
<feComposite in2="hardAlpha" operator="out"/>
<feColorMatrix type="matrix" values="0 0 0 0 0 0 0 0 0 0 0 0 0 0 0 0 0 0 0.25 0"/>
<feBlend mode="normal" in2="BackgroundImageFix" result="effect1_dropShadow_248_6684"/>
<feBlend mode="normal" in="SourceGraphic" in2="effect1_dropShadow_248_6684" result="shape"/>
</filter>
<filter id="filter7_d_248_6684" x="80.2179" y="26.2393" width="26.556" height="24.6385" filterUnits="userSpaceOnUse" color-interpolation-filters="sRGB">
<feFlood flood-opacity="0" result="BackgroundImageFix"/>
<feColorMatrix in="SourceAlpha" type="matrix" values="0 0 0 0 0 0 0 0 0 0 0 0 0 0 0 0 0 0 127 0" result="hardAlpha"/>
<feOffset dy="0.411782"/>
<feGaussianBlur stdDeviation="0.205891"/>
<feComposite in2="hardAlpha" operator="out"/>
<feColorMatrix type="matrix" values="0 0 0 0 0 0 0 0 0 0 0 0 0 0 0 0 0 0 0.25 0"/>
<feBlend mode="normal" in2="BackgroundImageFix" result="effect1_dropShadow_248_6684"/>
<feBlend mode="normal" in="SourceGraphic" in2="effect1_dropShadow_248_6684" result="shape"/>
</filter>
<filter id="filter8_f_248_6684" x="30.2627" y="125.513" width="53.6721" height="5.45948" filterUnits="userSpaceOnUse" color-interpolation-filters="sRGB">
<feFlood flood-opacity="0" result="BackgroundImageFix"/>
<feBlend mode="normal" in="SourceGraphic" in2="BackgroundImageFix" result="shape"/>
<feGaussianBlur stdDeviation="0.243654" result="effect1_foregroundBlur_248_6684"/>
</filter>
<linearGradient id="paint0_linear_248_6684" x1="59.5964" y1="62.5565" x2="80.9601" y2="64.6026" gradientUnits="userSpaceOnUse">
<stop stop-color="#EFF2F3"/>
<stop offset="1" stop-color="white"/>
</linearGradient>
<linearGradient id="paint1_linear_248_6684" x1="51.3481" y1="47.2024" x2="55.3835" y2="92.6828" gradientUnits="userSpaceOnUse">
<stop stop-color="#E3E9EB"/>
<stop offset="0.56737" stop-color="white"/>
</linearGradient>
<linearGradient id="paint2_linear_248_6684" x1="4.89625" y1="-10.4395" x2="4.89625" y2="8.18108" gradientUnits="userSpaceOnUse">
<stop stop-color="#50D5FF"/>
<stop offset="1" stop-color="#2C3585"/>
</linearGradient>
<radialGradient id="paint3_radial_248_6684" cx="0" cy="0" r="1" gradientUnits="userSpaceOnUse" gradientTransform="translate(1.00123 1.71659) rotate(90) scale(2.50148 1.45903)">
<stop stop-color="#51E0FF"/>
<stop offset="1" stop-color="#4E7CB4"/>
</radialGradient>
<radialGradient id="paint4_radial_248_6684" cx="0" cy="0" r="1" gradientUnits="userSpaceOnUse" gradientTransform="translate(1.00123 1.71659) rotate(90) scale(2.50148 1.45903)">
<stop stop-color="#FFB3B3"/>
<stop offset="1" stop-color="#F20000"/>
</radialGradient>
<radialGradient id="paint5_radial_248_6684" cx="0" cy="0" r="1" gradientUnits="userSpaceOnUse" gradientTransform="translate(47.3302 59.9965) rotate(-176.332) scale(37.3621)">
<stop offset="0.381" stop-color="#BFCCD1"/>
<stop offset="0.7578" stop-color="white"/>
</radialGradient>
<linearGradient id="paint6_linear_248_6684" x1="76.6511" y1="30.4013" x2="51.318" y2="28.7773" gradientUnits="userSpaceOnUse">
<stop stop-color="#FFF668"/>
<stop offset="0.29" stop-color="#FF9C4C"/>
<stop offset="1" stop-color="#880000"/>
</linearGradient>
<radialGradient id="paint7_radial_248_6684" cx="0" cy="0" r="1" gradientUnits="userSpaceOnUse" gradientTransform="translate(65.6521 33.895) rotate(-176.332) scale(19.98)">
<stop stop-color="white"/>
<stop offset="0.9385" stop-color="#880000"/>
</radialGradient>
<linearGradient id="paint8_linear_248_6684" x1="49.753" y1="118.877" x2="47.6665" y2="124.314" gradientUnits="userSpaceOnUse">
<stop stop-color="#504A44"/>
<stop offset="1" stop-color="#504A44" stop-opacity="0"/>
</linearGradient>
<linearGradient id="paint9_linear_248_6684" x1="68.5616" y1="117.208" x2="66.4751" y2="122.645" gradientUnits="userSpaceOnUse">
<stop stop-color="#504A44"/>
<stop offset="1" stop-color="#504A44" stop-opacity="0"/>
</linearGradient>
<linearGradient id="paint10_linear_248_6684" x1="39.0644" y1="61.3026" x2="58.0112" y2="71.3829" gradientUnits="userSpaceOnUse">
<stop stop-color="#EFF2F3"/>
<stop offset="1" stop-color="white"/>
</linearGradient>
<linearGradient id="paint11_linear_248_6684" x1="76.8015" y1="92.5807" x2="83.9534" y2="46.5345" gradientUnits="userSpaceOnUse">
<stop stop-color="#1E2236"/>
<stop offset="1" stop-color="#CECECE"/>
</linearGradient>
<linearGradient id="paint12_linear_248_6684" x1="80.4298" y1="80.4422" x2="85.8522" y2="51.3663" gradientUnits="userSpaceOnUse">
<stop stop-color="#DFDFDF"/>
<stop offset="0.879412" stop-color="#F0F3F4"/>
<stop offset="1" stop-color="white"/>
</linearGradient>
<linearGradient id="paint13_linear_248_6684" x1="84.4976" y1="53.9606" x2="84.9442" y2="58.9939" gradientUnits="userSpaceOnUse">
<stop stop-color="#1E2236"/>
<stop offset="1" stop-color="#1E2236" stop-opacity="0.35"/>
</linearGradient>
<radialGradient id="paint14_radial_248_6684" cx="0" cy="0" r="1" gradientUnits="userSpaceOnUse" gradientTransform="translate(57.0987 128.242) rotate(90) scale(2.24245 26.3487)">
<stop stop-color="#021B51"/>
<stop offset="1" stop-color="#75758F" stop-opacity="0"/>
</radialGradient>
</defs>
</svg>
